date,Available,Charging,Passive,Other
2021-02-19 00:00:00,141.5,18.75,14.2,97.5
2021-02-19 00:15:00,140.45,19.45,14.55,97.85
2021-02-19 00:30:00,140.15,20.15,14.85,97.85
2021-02-19 00:45:00,138.65,20.45,14.6,98.25
2021-02-19 01:00:00,137.75,20.85,14.35,99.35
2021-02-19 01:15:00,138.45,20.5,15.05,99.0
2021-02-19 01:30:00,138.05,21.5,14.1,99.0
2021-02-19 01:45:00,138.4,21.15,13.75,99.0
2021-02-19 02:00:00,139.25,21.5,14.0,97.9
2021-02-19 02:15:00,139.55,21.55,13.65,97.9
2021-02-19 02:30:00,140.6,20.85,13.3,97.9
2021-02-19 02:45:00,140.35,21.1,13.3,97.9
2021-02-19 03:00:00,140.25,21.0,13.95,97.45
2021-02-19 03:15:00,140.3,20.6,13.95,97.45
2021-02-19 03:30:00,140.5,20.35,13.6,98.2
2021-02-19 03:45:00,141.0,20.35,13.85,97.45
2021-02-19 04:00:00,142.45,20.0,13.85,96.35
2021-02-19 04:15:00,143.4,18.8,14.1,96.35
2021-02-19 04:30:00,143.35,18.4,13.85,96.35
2021-02-19 04:45:00,144.3,18.05,13.6,96.35
2021-02-19 05:00:00,144.15,18.05,13.35,97.1
2021-02-19 05:15:00,143.2,19.0,13.7,97.1
2021-02-19 05:30:00,142.6,20.25,13.45,96.35
2021-02-19 05:45:00,142.05,20.8,13.45,96.35
2021-02-19 06:00:00,141.3,21.3,13.7,96.35
2021-02-19 06:15:00,141.3,21.3,13.7,96.35
2021-02-19 06:30:00,140.6,21.3,14.05,96.35
2021-02-19 06:45:00,141.1,21.25,14.3,96.35
2021-02-19 07:00:00,141.3,20.45,13.85,96.35
2021-02-19 07:15:00,142.8,19.8,14.1,95.95
2021-02-19 07:30:00,142.45,19.8,14.1,95.95
2021-02-19 07:45:00,143.15,19.85,13.85,95.45
2021-02-19 08:00:00,143.35,20.0,13.85,95.1
2021-02-19 08:15:00,142.5,21.2,13.85,95.1
2021-02-19 08:30:00,141.25,21.95,14.35,95.45
2021-02-19 08:45:00,140.4,23.05,14.7,94.85
2021-02-19 09:00:00,141.7,22.6,15.05,93.65
2021-02-19 09:15:00,140.6,23.45,15.65,93.65
2021-02-19 09:30:00,139.65,22.4,15.55,93.65
2021-02-19 09:45:00,139.15,23.0,15.4,94.4
2021-02-19 10:00:00,138.7,23.1,15.4,94.4
2021-02-19 10:15:00,139.05,22.85,15.65,94.75
2021-02-19 10:30:00,138.2,23.1,15.9,94.75
2021-02-19 10:45:00,138.65,22.75,16.5,94.05
2021-02-19 11:00:00,139.0,23.1,16.15,94.05
2021-02-19 11:15:00,139.35,23.45,16.15,93.7
2021-02-19 11:30:00,139.85,23.1,16.4,92.6
2021-02-19 11:45:00,140.2,23.35,16.15,92.6
2021-02-19 12:00:00,140.9,22.75,16.4,92.6
2021-02-19 12:15:00,140.2,22.75,16.4,92.6
2021-02-19 12:30:00,139.85,23.1,16.75,92.95
2021-02-19 12:45:00,139.35,23.25,16.75,92.95
2021-02-19 13:00:00,139.6,23.35,17.1,92.95
2021-02-19 13:15:00,139.65,24.4,17.1,92.2
2021-02-19 13:30:00,139.45,24.65,16.7,92.2
2021-02-19 13:45:00,139.8,24.3,16.7,92.2
2021-02-19 14:00:00,140.15,23.6,16.35,92.55
2021-02-19 14:15:00,140.6,23.85,16.7,92.2
2021-02-19 14:30:00,140.85,23.6,16.7,92.55
2021-02-19 14:45:00,142.2,21.9,16.7,92.2
2021-02-19 15:00:00,141.35,21.65,16.7,93.3
2021-02-19 15:15:00,141.95,21.4,16.35,93.3
2021-02-19 15:30:00,142.3,21.4,16.35,93.3
2021-02-19 15:45:00,142.3,21.05,16.0,93.65
2021-02-19 16:00:00,142.55,21.4,15.75,93.65
2021-02-19 16:15:00,142.3,21.65,15.75,93.3
2021-02-19 16:30:00,142.2,21.15,16.0,93.65
2021-02-19 16:45:00,143.1,20.65,16.0,92.9
2021-02-19 17:00:00,143.6,20.15,16.0,92.9
2021-02-19 17:15:00,143.2,21.1,16.0,93.4
2021-02-19 17:30:00,140.85,22.85,15.5,94.15
2021-02-19 17:45:00,140.5,22.7,15.65,94.15
2021-02-19 18:00:00,140.65,22.1,16.15,93.75
2021-02-19 18:15:00,141.2,21.65,14.9,95.25
2021-02-19 18:30:00,141.1,21.4,14.9,95.25
2021-02-19 18:45:00,141.95,20.2,14.9,95.25
2021-02-19 19:00:00,142.15,20.7,14.9,94.9
2021-02-19 19:15:00,142.15,20.95,14.3,95.25
2021-02-19 19:30:00,144.15,20.35,13.95,94.9
2021-02-19 19:45:00,144.15,20.35,13.6,94.9
2021-02-19 20:00:00,143.9,20.25,13.6,94.9
2021-02-19 20:15:00,143.65,20.85,13.25,94.55
2021-02-19 20:30:00,143.75,21.45,13.25,94.9
2021-02-19 20:45:00,143.15,21.35,12.9,95.25
2021-02-19 21:00:00,143.75,20.75,12.9,95.6
2021-02-19 21:15:00,144.35,20.5,12.9,95.6
2021-02-19 21:30:00,143.7,20.4,12.9,96.35
2021-02-19 21:45:00,143.0,20.4,12.9,96.35
2021-02-19 22:00:00,144.2,19.9,12.9,96.7
2021-02-19 22:15:00,143.85,19.9,13.25,96.35
2021-02-19 22:30:00,144.45,19.65,13.25,96.7
2021-02-19 22:45:00,143.25,20.25,13.5,97.05
2021-02-19 23:00:00,142.9,20.25,13.5,97.05
2021-02-19 23:15:00,142.4,20.25,13.25,97.8
2021-02-19 23:30:00,142.15,19.65,13.75,97.8
2021-02-19 23:45:00,142.15,19.65,13.75,97.8
2021-02-20 00:00:00,140.95,20.15,13.75,97.8
2021-02-20 00:15:00,140.95,19.8,13.75,97.45
2021-02-20 00:30:00,140.6,19.55,13.6,98.55
2021-02-20 00:45:00,140.6,20.25,13.6,98.55
2021-02-20 01:00:00,139.2,20.95,13.25,98.9
2021-02-20 01:15:00,138.85,20.95,13.25,98.9
2021-02-20 01:30:00,139.6,20.45,13.0,99.25
2021-02-20 01:45:00,139.85,19.5,13.0,99.6
2021-02-20 02:00:00,139.85,19.5,13.35,99.6
2021-02-20 02:15:00,140.55,19.5,13.35,99.6
2021-02-20 02:30:00,140.65,20.1,13.35,99.6
2021-02-20 02:45:00,140.4,20.35,13.35,99.6
2021-02-20 03:00:00,140.5,19.85,13.35,100.0
2021-02-20 03:15:00,141.2,19.5,13.35,99.65
2021-02-20 03:30:00,141.35,19.15,13.6,99.25
2021-02-20 03:45:00,141.45,19.4,13.6,98.9
2021-02-20 04:00:00,141.85,19.4,13.6,98.15
2021-02-20 04:15:00,142.25,18.4,13.1,98.9
2021-02-20 04:30:00,144.05,18.4,13.1,98.15
2021-02-20 04:45:00,143.95,17.8,13.1,98.5
2021-02-20 05:00:00,143.35,18.3,12.85,98.15
2021-02-20 05:15:00,142.25,18.7,12.85,97.8
2021-02-20 05:30:00,143.1,18.35,13.1,97.4
2021-02-20 05:45:00,142.5,18.35,13.35,97.75
2021-02-20 06:00:00,142.25,18.35,13.6,97.4
2021-02-20 06:15:00,142.25,18.35,13.6,97.05
2021-02-20 06:30:00,142.5,18.7,13.35,97.05
2021-02-20 06:45:00,142.5,17.7,13.95,97.8
2021-02-20 07:00:00,143.15,17.8,13.95,97.05
2021-02-20 07:15:00,143.55,17.65,13.7,97.4
2021-02-20 07:30:00,143.2,17.75,13.95,97.4
2021-02-20 07:45:00,144.75,18.7,13.35,96.55
2021-02-20 08:00:00,142.7,19.55,13.85,96.2
2021-02-20 08:15:00,143.2,18.6,14.35,95.1
2021-02-20 08:30:00,141.5,20.2,14.1,95.45
2021-02-20 08:45:00,141.2,20.8,14.7,95.25
2021-02-20 09:00:00,142.45,20.4,15.4,94.75
2021-02-20 09:15:00,141.85,19.85,15.15,94.75
2021-02-20 09:30:00,142.3,19.15,15.75,95.1
2021-02-20 09:45:00,142.65,20.0,15.25,95.45
2021-02-20 10:00:00,142.65,20.1,15.5,95.45
2021-02-20 10:15:00,142.4,19.6,15.9,95.45
2021-02-20 10:30:00,143.1,19.85,15.65,95.1
2021-02-20 10:45:00,143.1,19.4,14.7,95.1
2021-02-20 11:00:00,143.45,19.15,14.95,94.75
2021-02-20 11:15:00,142.85,19.75,14.95,94.75
2021-02-20 11:30:00,143.45,20.1,14.35,94.75
2021-02-20 11:45:00,142.25,20.6,14.35,95.1
2021-02-20 12:00:00,142.5,21.05,14.7,95.1
2021-02-20 12:15:00,141.2,22.0,15.05,94.4
2021-02-20 12:30:00,141.1,22.1,15.4,94.4
2021-02-20 12:45:00,141.2,21.3,15.05,94.4
2021-02-20 13:00:00,141.3,22.5,14.8,94.4
2021-02-20 13:15:00,141.15,22.65,14.45,94.4
2021-02-20 13:30:00,142.15,21.9,14.55,94.75
2021-02-20 13:45:00,141.65,22.05,14.55,95.45
2021-02-20 14:00:00,141.65,22.75,14.2,95.1
2021-02-20 14:15:00,141.5,22.9,14.2,95.45
2021-02-20 14:30:00,141.5,23.25,14.2,95.45
2021-02-20 14:45:00,142.35,22.4,14.2,95.1
2021-02-20 15:00:00,142.5,21.8,13.95,95.1
2021-02-20 15:15:00,143.2,22.75,14.1,93.65
2021-02-20 15:30:00,142.6,23.0,14.45,93.65
2021-02-20 15:45:00,142.5,23.25,14.3,93.65
2021-02-20 16:00:00,141.5,23.15,14.3,94.4
2021-02-20 16:15:00,141.85,22.3,14.8,95.1
2021-02-20 16:30:00,141.0,22.55,15.05,94.75
2021-02-20 16:45:00,141.4,22.05,15.05,94.5
2021-02-20 17:00:00,142.35,21.45,15.05,94.5
2021-02-20 17:15:00,141.9,21.55,15.05,94.5
2021-02-20 17:30:00,141.6,21.95,14.2,94.9
2021-02-20 17:45:00,140.9,21.8,15.05,94.9
2021-02-20 18:00:00,140.9,21.7,14.1,94.55
2021-02-20 18:15:00,141.5,21.7,13.85,94.9
2021-02-20 18:30:00,141.85,21.35,13.85,94.55
2021-02-20 18:45:00,142.25,20.5,13.95,94.55
2021-02-20 19:00:00,142.55,20.15,13.6,95.65
2021-02-20 19:15:00,142.1,20.65,13.95,95.25
2021-02-20 19:30:00,142.65,21.4,13.7,94.9
2021-02-20 19:45:00,141.45,22.95,13.7,94.55
2021-02-20 20:00:00,141.1,22.6,13.7,94.9
2021-02-20 20:15:00,141.8,22.25,13.7,94.9
2021-02-20 20:30:00,142.6,22.15,13.7,94.9
2021-02-20 20:45:00,142.6,22.15,13.35,95.25
2021-02-20 21:00:00,141.65,22.0,13.35,96.35
2021-02-20 21:15:00,141.65,21.75,13.6,96.35
2021-02-20 21:30:00,142.25,21.5,13.6,96.35
2021-02-20 21:45:00,142.25,21.5,13.6,96.35
2021-02-20 22:00:00,142.5,21.25,13.6,96.35
2021-02-20 22:15:00,141.45,20.9,13.6,97.05
2021-02-20 22:30:00,141.8,21.0,13.85,97.05
2021-02-20 22:45:00,141.2,21.0,14.45,97.05
2021-02-20 23:00:00,141.1,21.0,14.2,97.05
2021-02-20 23:15:00,140.0,21.6,13.95,97.8
2021-02-20 23:30:00,140.35,21.1,14.45,97.8
2021-02-20 23:45:00,139.55,21.1,14.2,97.8
2021-02-21 00:00:00,139.9,20.85,14.45,97.8
2021-02-21 00:15:00,139.8,19.9,14.8,97.8
2021-02-21 00:30:00,138.95,20.4,14.8,98.15
2021-02-21 00:45:00,139.3,20.5,15.05,98.15
2021-02-21 01:00:00,139.3,20.5,14.7,98.15
2021-02-21 01:15:00,139.65,20.5,14.7,97.8
2021-02-21 01:30:00,140.85,20.5,14.2,97.45
2021-02-21 01:45:00,141.2,20.15,14.2,97.45
2021-02-21 02:00:00,141.2,20.15,14.2,97.45
2021-02-21 02:15:00,141.3,20.15,13.7,98.2
2021-02-21 02:30:00,140.7,20.0,13.7,98.95
2021-02-21 02:45:00,140.25,20.85,13.7,98.55
2021-02-21 03:00:00,139.75,20.35,13.6,99.3
2021-02-21 03:15:00,140.35,19.75,13.6,99.65
2021-02-21 03:30:00,141.2,19.75,13.85,98.55
2021-02-21 03:45:00,140.85,19.75,13.85,98.9
2021-02-21 04:00:00,141.95,18.65,13.85,98.9
2021-02-21 04:15:00,142.55,18.15,13.35,99.65
2021-02-21 04:30:00,142.45,17.55,13.35,99.65
2021-02-21 04:45:00,143.3,17.05,13.35,99.65
2021-02-21 05:00:00,143.2,16.8,13.7,99.65
2021-02-21 05:15:00,142.45,17.2,14.05,100.0
2021-02-21 05:30:00,142.7,17.7,14.05,99.25
2021-02-21 05:45:00,142.2,18.45,13.8,99.25
2021-02-21 06:00:00,141.5,18.45,13.8,99.25
2021-02-21 06:15:00,141.25,18.8,14.4,98.9
2021-02-21 06:30:00,141.25,19.15,14.4,98.9
2021-02-21 06:45:00,142.4,17.4,14.3,99.25
2021-02-21 07:00:00,142.9,16.9,14.3,99.25
2021-02-21 07:15:00,142.9,17.25,14.3,99.25
2021-02-21 07:30:00,142.9,17.25,14.3,99.25
2021-02-21 07:45:00,144.5,17.5,14.05,97.3
2021-02-21 08:00:00,144.0,18.0,14.05,97.3
2021-02-21 08:15:00,143.4,18.5,14.55,96.55
2021-02-21 08:30:00,143.05,18.75,15.05,95.8
2021-02-21 08:45:00,142.65,19.5,14.9,96.3
2021-02-21 09:00:00,142.9,19.75,14.9,95.8
2021-02-21 09:15:00,142.75,20.25,15.25,95.45
2021-02-21 09:30:00,141.45,19.65,15.85,96.05
2021-02-21 09:45:00,142.75,20.0,15.85,95.45
2021-02-21 10:00:00,143.25,19.15,15.5,95.45
2021-02-21 10:15:00,143.25,19.15,15.15,95.45
2021-02-21 10:30:00,142.55,19.15,15.15,95.45
2021-02-21 10:45:00,143.0,19.75,14.799999999999999,95.45
2021-02-21 11:00:00,143.0,19.75,14.45,95.45
2021-02-21 11:15:00,142.75,19.65,14.45,95.45
2021-02-21 11:30:00,142.5,20.35,14.7,94.75
2021-02-21 11:45:00,142.1,20.75,14.7,94.75
2021-02-21 12:00:00,142.1,20.75,14.7,94.4
2021-02-21 12:15:00,142.45,21.1,15.05,94.4
2021-02-21 12:30:00,142.6,20.85,14.8,94.4
2021-02-21 12:45:00,141.4,20.85,15.65,94.75
2021-02-21 13:00:00,141.15,21.1,15.65,95.1
2021-02-21 13:15:00,141.4,21.7,15.5,94.75
2021-02-21 13:30:00,143.0,21.3,14.65,94.4
2021-02-21 13:45:00,142.5,21.8,14.65,94.4
2021-02-21 14:00:00,142.15,21.8,14.65,94.4
2021-02-21 14:15:00,142.0,21.95,14.65,94.4
2021-02-21 14:30:00,142.25,21.35,14.3,94.4
2021-02-21 14:45:00,142.4,20.85,14.3,94.4
2021-02-21 15:00:00,142.85,21.1,14.3,94.4
2021-02-21 15:15:00,142.35,21.35,14.9,94.4
2021-02-21 15:30:00,142.6,21.35,14.65,94.4
2021-02-21 15:45:00,142.7,21.6,15.0,94.05
2021-02-21 16:00:00,142.1,21.6,15.25,94.4
2021-02-21 16:15:00,142.45,21.5,15.0,94.05
2021-02-21 16:30:00,142.2,21.85,15.25,94.4
2021-02-21 16:45:00,144.05,20.6,15.25,94.15
2021-02-21 17:00:00,142.95,20.6,15.25,94.9
2021-02-21 17:15:00,143.0,19.85,15.25,94.9
2021-02-21 17:30:00,140.75,21.35,14.9,95.65
2021-02-21 17:45:00,140.4,21.55,15.4,95.65
2021-02-21 18:00:00,140.05,21.8,14.8,95.65
2021-02-21 18:15:00,140.5,22.3,14.55,95.3
2021-02-21 18:30:00,140.5,22.3,14.2,95.3
2021-02-21 18:45:00,141.15,20.6,14.2,95.3
2021-02-21 19:00:00,141.35,21.1,13.85,95.3
2021-02-21 19:15:00,141.6,21.6,14.2,94.55
2021-02-21 19:30:00,141.8,21.4,14.2,94.9
2021-02-21 19:45:00,141.7,21.75,13.95,94.9
2021-02-21 20:00:00,141.7,22.0,13.7,94.9
2021-02-21 20:15:00,141.7,21.75,13.95,94.9
2021-02-21 20:30:00,141.8,21.65,13.95,94.9
2021-02-21 20:45:00,141.8,21.65,13.95,95.25
2021-02-21 21:00:00,142.4,21.75,13.95,95.25
2021-02-21 21:15:00,142.3,21.5,13.95,95.6
2021-02-21 21:30:00,141.8,21.25,13.95,96.0
2021-02-21 21:45:00,141.1,21.25,13.95,96.35
2021-02-21 22:00:00,141.7,21.0,13.95,96.35
2021-02-21 22:15:00,141.7,21.0,13.95,96.35
2021-02-21 22:30:00,141.95,20.75,13.95,96.35
2021-02-21 22:45:00,140.75,21.0,14.2,96.7
2021-02-21 23:00:00,141.1,21.0,14.2,96.35
2021-02-21 23:15:00,139.9,21.0,13.6,97.1
2021-02-21 23:30:00,139.65,20.4,14.45,97.45
2021-02-21 23:45:00,139.55,20.15,14.45,97.45
2021-02-22 00:00:00,138.95,20.75,14.45,97.45
2021-02-22 00:15:00,139.3,20.75,14.45,97.1
2021-02-22 00:30:00,139.2,20.5,14.45,97.1
2021-02-22 00:45:00,139.2,20.6,14.7,97.45
2021-02-22 01:00:00,139.2,20.6,14.7,97.45
2021-02-22 01:15:00,139.2,20.6,15.05,97.8
2021-02-22 01:30:00,139.45,20.85,14.55,97.8
2021-02-22 01:45:00,138.95,20.25,14.55,98.55
2021-02-22 02:00:00,139.3,20.6,14.55,98.55
2021-02-22 02:15:00,139.9,20.6,14.3,98.9
2021-02-22 02:30:00,139.9,20.6,14.3,98.9
2021-02-22 02:45:00,140.05,20.85,14.3,98.15
2021-02-22 03:00:00,139.9,20.85,14.05,98.9
2021-02-22 03:15:00,139.55,20.6,14.3,98.9
2021-02-22 03:30:00,139.7,20.95,14.55,98.15
2021-02-22 03:45:00,138.85,20.7,14.2,99.6
2021-02-22 04:00:00,139.7,20.2,14.55,98.9
2021-02-22 04:15:00,140.45,19.35,13.6,98.9
2021-02-22 04:30:00,140.6,18.85,13.6,99.25
2021-02-22 04:45:00,141.45,18.6,13.7,98.9
2021-02-22 05:00:00,141.1,18.6,13.7,98.9
2021-02-22 05:15:00,140.1,19.6,13.7,98.9
2021-02-22 05:30:00,139.35,20.25,13.1,99.25
2021-02-22 05:45:00,138.35,21.0,13.35,98.55
2021-02-22 06:00:00,138.45,21.25,13.7,98.55
2021-02-22 06:15:00,138.95,21.25,13.95,98.15
2021-02-22 06:30:00,139.35,21.0,13.45,98.5
2021-02-22 06:45:00,139.45,20.35,13.6,99.25
2021-02-22 07:00:00,141.2,19.45,14.2,98.5
2021-02-22 07:15:00,142.25,19.4,14.35,96.65
2021-02-22 07:30:00,142.0,19.9,14.85,95.9
2021-02-22 07:45:00,143.6,19.65,14.35,95.4
2021-02-22 08:00:00,142.25,20.4,14.95,95.4
2021-02-22 08:15:00,142.85,20.15,14.95,95.4
2021-02-22 08:30:00,141.35,20.8,15.45,95.4
2021-02-22 08:45:00,141.05,21.45,14.95,95.55
2021-02-22 09:00:00,139.85,22.45,14.95,95.05
2021-02-22 09:15:00,140.4,22.6,15.299999999999999,94.7
2021-02-22 09:30:00,139.3,22.15,15.799999999999999,94.7
2021-02-22 09:45:00,138.6,22.15,16.15,94.7
2021-02-22 10:00:00,138.6,22.85,16.15,94.7
2021-02-22 10:15:00,138.7,22.85,16.4,94.7
2021-02-22 10:30:00,139.55,22.35,16.4,95.05
2021-02-22 10:45:00,138.7,22.5,16.4,95.05
2021-02-22 11:00:00,139.15,22.5,15.2,95.45
2021-02-22 11:15:00,138.8,22.5,14.85,95.45
2021-02-22 11:30:00,139.05,22.6,15.25,95.05
2021-02-22 11:45:00,138.6,22.7,15.25,94.7
2021-02-22 12:00:00,137.55,23.3,15.35,93.65
2021-02-22 12:15:00,137.8,24.1,15.35,94.0
2021-02-22 12:30:00,136.8,25.1,15.7,94.0
2021-02-22 12:45:00,137.15,24.85,16.3,94.0
2021-02-22 13:00:00,137.65,24.6,16.4,93.65
2021-02-22 13:15:00,137.05,24.5,16.75,93.65
2021-02-22 13:30:00,137.1,24.5,15.65,94.0
2021-02-22 13:45:00,137.55,24.75,15.65,94.0
2021-02-22 14:00:00,137.2,24.75,15.3,94.0
2021-02-22 14:15:00,138.0,24.4,15.55,94.0
2021-02-22 14:30:00,138.65,24.5,15.55,93.25
2021-02-22 14:45:00,139.4,23.75,15.55,93.25
2021-02-22 15:00:00,140.85,23.25,15.3,93.25
2021-02-22 15:15:00,140.95,23.25,15.9,93.25
2021-02-22 15:30:00,141.1,22.4,16.25,92.9
2021-02-22 15:45:00,142.15,22.65,16.35,92.9
2021-02-22 16:00:00,142.5,22.3,16.35,92.55
2021-02-22 16:15:00,142.35,22.05,16.35,92.95
2021-02-22 16:30:00,141.65,21.8,16.6,93.3
2021-02-22 16:45:00,142.3,21.2,16.6,92.55
2021-02-22 17:00:00,142.55,20.95,16.25,92.55
2021-02-22 17:15:00,141.95,21.3,16.0,93.05
2021-02-22 17:30:00,141.3,22.65,15.65,93.05
2021-02-22 17:45:00,141.8,22.15,15.3,93.05
2021-02-22 18:00:00,142.5,22.4,15.05,93.05
2021-02-22 18:15:00,142.85,22.65,14.8,92.7
2021-02-22 18:30:00,142.85,22.65,14.45,92.7
2021-02-22 18:45:00,143.45,22.15,13.6,93.1
2021-02-22 19:00:00,142.55,22.05,13.5,93.85
2021-02-22 19:15:00,142.8,22.75,13.25,93.85
2021-02-22 19:30:00,142.55,22.75,13.5,93.85
2021-02-22 19:45:00,142.8,23.1,13.25,94.2
2021-02-22 20:00:00,141.5,23.0,13.25,94.55
2021-02-22 20:15:00,141.85,22.65,13.6,94.55
2021-02-22 20:30:00,140.9,22.9,13.6,94.9
2021-02-22 20:45:00,140.9,22.9,13.6,95.25
2021-02-22 21:00:00,140.9,23.25,13.6,95.25
2021-02-22 21:15:00,140.3,23.25,13.85,95.25
2021-02-22 21:30:00,139.2,23.25,13.85,96.35
2021-02-22 21:45:00,139.55,23.25,13.5,96.35
2021-02-22 22:00:00,140.3,22.75,13.25,96.7
2021-02-22 22:15:00,140.3,23.1,13.25,96.7
2021-02-22 22:30:00,140.9,23.2,13.25,96.7
2021-02-22 22:45:00,140.55,22.85,13.25,96.7
2021-02-22 23:00:00,140.55,22.85,13.25,96.7
2021-02-22 23:15:00,139.45,22.85,13.25,97.45
2021-02-22 23:30:00,138.7,23.1,13.75,97.45
2021-02-22 23:45:00,138.35,23.1,13.75,97.45
2021-02-24 00:00:00,139.2,22.7,13.65,97.45
2021-02-24 00:15:00,139.1,22.7,13.75,97.45
2021-02-24 00:30:00,139.1,22.45,14.0,97.45
2021-02-24 00:45:00,139.95,22.55,13.05,97.45
2021-02-24 01:00:00,139.95,22.3,13.3,97.45
2021-02-24 01:15:00,140.3,22.3,13.3,97.1
2021-02-24 01:30:00,140.3,22.3,13.3,97.1
2021-02-24 01:45:00,140.65,22.3,13.3,97.1
2021-02-24 02:00:00,140.65,21.95,13.3,97.1
2021-02-24 02:15:00,141.25,21.95,13.05,97.1
2021-02-24 02:30:00,141.85,22.2,12.55,97.1
2021-02-24 02:45:00,141.85,22.2,12.55,97.1
2021-02-24 03:00:00,141.85,22.2,12.55,97.1
2021-02-24 03:15:00,142.45,21.85,12.65,97.1
2021-02-24 03:30:00,142.1,21.25,12.9,97.45
2021-02-24 03:45:00,142.45,21.25,12.9,97.45
2021-02-24 04:00:00,142.45,20.9,13.25,97.1
2021-02-24 04:15:00,143.45,19.9,12.9,97.1
2021-02-24 04:30:00,144.05,19.3,12.55,97.8
2021-02-24 04:45:00,144.2,19.3,12.8,97.05
2021-02-24 05:00:00,143.15,19.65,12.8,97.05
2021-02-24 05:15:00,142.9,19.9,12.8,97.4
2021-02-24 05:30:00,142.4,20.3,12.55,97.4
2021-02-24 05:45:00,141.15,21.65,13.15,97.05
2021-02-24 06:00:00,141.1,22.05,13.15,96.7
2021-02-24 06:15:00,140.5,22.05,13.05,96.7
2021-02-24 06:30:00,138.95,22.55,13.4,97.05
2021-02-24 06:45:00,140.4,20.45,13.3,97.45
2021-02-24 07:00:00,141.05,20.55,13.65,96.7
2021-02-24 07:15:00,143.4,19.15,13.4,96.7
2021-02-24 07:30:00,143.8,19.4,14.25,95.2
2021-02-24 07:45:00,143.35,19.15,14.0,95.8
2021-02-24 08:00:00,143.1,19.15,14.6,95.8
2021-02-24 08:15:00,144.15,19.65,14.85,94.7
2021-02-24 08:30:00,143.15,20.65,14.5,94.35
2021-02-24 08:45:00,141.65,21.9,13.9,94.85
2021-02-24 09:00:00,141.9,21.45,13.55,94.35
2021-02-24 09:15:00,141.25,22.2,13.8,94.0
2021-02-24 09:30:00,141.25,21.95,14.4,94.35
2021-02-24 09:45:00,141.95,21.6,14.4,94.35
2021-02-24 10:00:00,143.0,21.0,14.65,94.35
2021-02-24 10:15:00,142.65,21.35,14.65,94.0
2021-02-24 10:30:00,142.15,21.35,15.15,94.0
2021-02-24 10:45:00,141.65,21.85,14.8,94.0
2021-02-24 11:00:00,141.4,22.1,14.05,94.75
2021-02-24 11:15:00,141.4,22.1,14.4,94.75
2021-02-24 11:30:00,141.55,22.65,15.15,94.0
2021-02-24 11:45:00,141.55,23.35,15.15,93.3
2021-02-24 12:00:00,141.55,22.65,15.15,93.3
2021-02-24 12:15:00,141.2,22.65,15.15,93.3
2021-02-24 12:30:00,140.95,23.15,15.25,92.95
2021-02-24 12:45:00,141.8,22.05,15.5,92.95
2021-02-24 13:00:00,141.1,22.05,15.5,92.6
2021-02-24 13:15:00,141.85,22.4,15.5,91.85
2021-02-24 13:30:00,141.15,22.9,15.0,92.2
2021-02-24 13:45:00,141.6,23.5,15.0,92.2
2021-02-24 14:00:00,141.25,23.5,15.0,92.2
2021-02-24 14:15:00,139.95,23.4,15.0,92.2
2021-02-24 14:30:00,139.6,23.75,15.0,92.55
2021-02-24 14:45:00,140.7,23.35,14.65,92.2
2021-02-24 15:00:00,141.8,22.6,14.65,92.55
2021-02-24 15:15:00,142.0,22.5,14.9,92.2
2021-02-24 15:30:00,143.3,22.25,14.9,91.85
2021-02-24 15:45:00,142.35,22.75,15.0,92.2
2021-02-24 16:00:00,142.95,22.15,15.35,91.85
2021-02-24 16:15:00,142.95,22.25,15.25,91.85
2021-02-24 16:30:00,142.5,22.35,15.25,91.85
2021-02-24 16:45:00,143.0,21.85,15.25,91.85
2021-02-24 17:00:00,142.9,21.5,15.0,91.85
2021-02-24 17:15:00,142.4,21.75,15.1,92.35
2021-02-24 17:30:00,142.0,21.8,14.75,92.35
2021-02-24 17:45:00,142.35,22.05,14.15,92.35
2021-02-24 18:00:00,143.3,22.4,13.55,92.0
2021-02-24 18:15:00,143.05,21.55,12.8,93.85
2021-02-24 18:30:00,143.4,21.2,12.8,94.2
2021-02-24 18:45:00,143.4,20.85,12.8,94.2
2021-02-24 19:00:00,145.1,20.95,12.1,93.45
2021-02-24 19:15:00,145.1,20.95,12.45,93.45
2021-02-24 19:30:00,144.0,20.25,12.45,94.2
2021-02-24 19:45:00,144.0,21.55,11.85,94.2
2021-02-24 20:00:00,142.9,22.4,12.1,94.55
2021-02-24 20:15:00,143.5,22.05,11.85,94.2
2021-02-24 20:30:00,143.0,21.8,11.85,95.3
2021-02-24 20:45:00,142.75,22.4,11.85,95.3
2021-02-24 21:00:00,142.75,22.4,11.85,94.95
2021-02-24 21:15:00,141.8,22.4,12.1,95.3
2021-02-24 21:30:00,140.5,23.0,12.1,95.3
2021-02-24 21:45:00,140.5,22.65,12.1,95.3
2021-02-24 22:00:00,141.0,22.15,12.1,95.3
2021-02-24 22:15:00,141.85,21.65,12.1,95.3
2021-02-24 22:30:00,142.8,21.05,12.1,95.3
2021-02-24 22:45:00,142.55,20.95,12.1,95.3
2021-02-24 23:00:00,142.45,21.3,11.85,95.3
2021-02-24 23:15:00,141.8,21.55,11.85,96.05
2021-02-24 23:30:00,140.95,21.65,12.6,96.05
2021-02-24 23:45:00,140.95,21.65,12.25,96.4
2021-02-25 00:00:00,141.3,21.65,12.6,96.4
2021-02-25 00:15:00,141.65,21.3,12.6,96.4
2021-02-25 00:30:00,141.65,20.95,12.6,96.4
2021-02-25 00:45:00,142.75,20.45,12.35,96.4
2021-02-25 01:00:00,142.75,20.45,12.35,96.4
2021-02-25 01:15:00,142.85,20.7,12.35,96.4
2021-02-25 01:30:00,143.35,20.45,12.1,96.4
2021-02-25 01:45:00,143.7,20.1,12.1,96.4
2021-02-25 02:00:00,143.7,20.1,12.1,96.4
2021-02-25 02:15:00,143.95,20.1,11.85,96.05
2021-02-25 02:30:00,143.95,20.1,11.85,96.05
2021-02-25 02:45:00,143.7,20.35,11.85,96.05
2021-02-25 03:00:00,143.7,20.35,11.85,96.05
2021-02-25 03:15:00,144.05,20.0,11.85,96.05
2021-02-25 03:30:00,144.05,19.75,12.1,96.05
2021-02-25 03:45:00,144.05,19.75,12.1,96.05
2021-02-25 04:00:00,143.95,19.5,12.1,96.4
2021-02-25 04:15:00,144.6,18.75,11.85,96.75
2021-02-25 04:30:00,144.6,18.75,11.85,96.75
2021-02-25 04:45:00,145.35,18.5,12.1,96.0
2021-02-25 05:00:00,145.0,18.5,12.1,96.0
2021-02-25 05:15:00,144.5,19.25,11.85,96.0
2021-02-25 05:30:00,144.0,20.0,11.6,96.0
2021-02-25 05:45:00,142.65,21.1,11.85,96.0
2021-02-25 06:00:00,142.25,21.95,12.1,95.65
2021-02-25 06:15:00,142.0,21.95,12.35,95.65
2021-02-25 06:30:00,142.15,21.7,12.1,95.65
2021-02-25 06:45:00,142.55,20.45,11.85,96.4
2021-02-25 07:00:00,143.4,20.2,12.35,95.65
2021-02-25 07:15:00,145.3,19.05,12.0,94.9
2021-02-25 07:30:00,145.2,18.8,12.0,94.9
2021-02-25 07:45:00,145.35,20.0,11.5,94.4
2021-02-25 08:00:00,143.9,20.6,12.0,94.4
2021-02-25 08:15:00,144.6,20.85,11.75,94.05
2021-02-25 08:30:00,143.1,22.7,11.75,94.05
2021-02-25 08:45:00,143.4,22.4,12.0,93.8
2021-02-25 09:00:00,144.0,22.05,12.6,93.3
2021-02-25 09:15:00,142.9,22.8,12.95,92.95
2021-02-25 09:30:00,141.55,22.6,13.1,92.95
2021-02-25 09:45:00,142.5,22.7,12.7,93.7
2021-02-25 10:00:00,142.9,21.95,13.45,92.95
2021-02-25 10:15:00,143.25,22.4,14.05,92.6
2021-02-25 10:30:00,142.4,23.0,14.3,92.6
2021-02-25 10:45:00,141.8,23.15,14.05,92.6
2021-02-25 11:00:00,141.9,23.6,13.8,93.35
2021-02-25 11:15:00,141.05,24.1,14.15,93.35
2021-02-25 11:30:00,141.2,24.55,14.3,92.6
2021-02-25 11:45:00,140.95,24.8,14.65,92.6
2021-02-25 12:00:00,141.2,24.9,13.95,92.6
2021-02-25 12:15:00,140.85,24.2,14.3,92.6
2021-02-25 12:30:00,140.15,24.55,14.65,92.95
2021-02-25 12:45:00,140.05,23.7,15.6,92.95
2021-02-25 13:00:00,140.05,24.05,15.6,93.3
2021-02-25 13:15:00,139.7,23.25,15.35,93.3
2021-02-25 13:30:00,139.6,23.5,14.85,92.95
2021-02-25 13:45:00,140.5,24.25,14.6,92.95
2021-02-25 14:00:00,140.15,23.9,14.6,92.95
2021-02-25 14:15:00,141.3,23.45,14.25,92.95
2021-02-25 14:30:00,141.2,23.55,14.25,92.95
2021-02-25 14:45:00,143.3,22.9,14.25,92.2
2021-02-25 15:00:00,143.3,22.15,14.25,92.6
2021-02-25 15:15:00,142.0,22.05,14.6,92.6
2021-02-25 15:30:00,142.7,21.7,14.6,92.6
2021-02-25 15:45:00,143.15,22.3,14.25,92.6
2021-02-25 16:00:00,142.45,23.0,14.6,92.6
2021-02-25 16:15:00,142.35,22.75,14.6,92.25
2021-02-25 16:30:00,143.3,21.55,14.5,92.25
2021-02-25 16:45:00,144.75,20.7,14.15,92.0
2021-02-25 17:00:00,144.9,20.8,13.9,92.0
2021-02-25 17:15:00,145.95,20.35,13.65,92.0
2021-02-25 17:30:00,145.05,21.0,13.15,92.75
2021-02-25 17:45:00,145.05,21.2,13.3,92.75
2021-02-25 18:00:00,145.55,21.2,13.55,92.0
2021-02-25 18:15:00,145.75,20.5,12.55,93.5
2021-02-25 18:30:00,145.4,20.5,12.55,93.5
2021-02-25 18:45:00,145.75,20.15,12.55,93.85
2021-02-25 19:00:00,145.65,20.25,12.2,93.85
2021-02-25 19:15:00,145.65,19.9,11.85,93.5
2021-02-25 19:30:00,145.55,19.65,11.85,93.5
2021-02-25 19:45:00,145.55,20.6,11.6,93.5
2021-02-25 20:00:00,143.75,20.75,12.55,93.85
2021-02-25 20:15:00,143.5,21.35,12.55,93.85
2021-02-25 20:30:00,143.6,21.6,12.55,94.2
2021-02-25 20:45:00,142.5,21.6,12.55,94.95
2021-02-25 21:00:00,142.65,21.45,12.55,94.95
2021-02-25 21:15:00,143.35,21.8,12.55,94.95
2021-02-25 21:30:00,143.1,22.05,12.55,94.95
2021-02-25 21:45:00,142.75,22.05,12.55,94.95
2021-02-25 22:00:00,143.25,21.55,12.55,94.95
2021-02-25 22:15:00,143.6,21.55,12.55,94.95
2021-02-25 22:30:00,143.4,21.05,12.55,95.3
2021-02-25 22:45:00,143.5,20.95,12.55,95.65
2021-02-25 23:00:00,143.15,20.95,12.55,95.65
2021-02-25 23:15:00,142.15,21.2,12.55,96.4
2021-02-25 23:30:00,141.3,21.3,13.3,96.4
2021-02-25 23:45:00,140.95,21.3,13.3,96.4
2021-02-26 00:00:00,141.1,21.4,13.05,96.4
2021-02-26 00:15:00,141.1,21.05,13.05,96.4
2021-02-26 00:30:00,140.5,21.75,13.3,96.4
2021-02-26 00:45:00,141.1,21.4,13.05,96.4
2021-02-26 01:00:00,140.5,21.15,12.45,97.85
2021-02-26 01:15:00,140.5,21.15,12.8,97.5
2021-02-26 01:30:00,140.3,21.15,12.3,98.2
2021-02-26 01:45:00,140.3,21.15,12.3,98.2
2021-02-26 02:00:00,141.15,21.15,12.55,97.1
2021-02-26 02:15:00,141.5,21.15,12.55,96.75
2021-02-26 02:30:00,142.2,20.8,12.55,96.75
2021-02-26 02:45:00,140.9,21.75,12.55,96.75
2021-02-26 03:00:00,141.25,21.75,12.55,96.4
2021-02-26 03:15:00,141.6,21.4,12.55,96.75
2021-02-26 03:30:00,141.1,21.15,12.2,97.5
2021-02-26 03:45:00,141.6,21.15,12.8,96.4
2021-02-26 04:00:00,142.6,20.9,12.45,96.0
2021-02-26 04:15:00,142.85,20.4,12.7,95.65
2021-02-26 04:30:00,143.85,19.65,12.45,96.0
2021-02-26 04:45:00,144.1,19.65,12.2,96.0
2021-02-26 05:00:00,143.6,19.3,12.3,97.1
2021-02-26 05:15:00,143.7,19.55,11.95,96.4
2021-02-26 05:30:00,143.1,20.8,11.7,96.0
2021-02-26 05:45:00,142.5,21.05,12.05,96.0
2021-02-26 06:00:00,141.4,21.55,11.6,96.35
2021-02-26 06:15:00,141.05,21.9,11.95,96.7
2021-02-26 06:30:00,141.4,21.9,11.6,96.7
2021-02-26 06:45:00,142.25,21.15,12.2,96.7
2021-02-26 07:00:00,142.75,20.4,12.45,96.7
2021-02-26 07:15:00,144.25,19.4,12.7,95.95
2021-02-26 07:30:00,144.25,19.4,12.7,95.95
2021-02-26 07:45:00,145.25,19.85,12.45,95.1
2021-02-26 08:00:00,144.75,20.35,12.45,94.75
2021-02-26 08:15:00,144.25,20.85,12.45,94.75
2021-02-26 08:30:00,143.0,21.6,12.95,94.75
2021-02-26 08:45:00,143.2,22.0,13.299999999999999,94.15
2021-02-26 09:00:00,143.1,21.9,14.0,93.65
2021-02-26 09:15:00,141.65,22.4,14.25,93.65
2021-02-26 09:30:00,140.7,22.05,14.5,94.0
2021-02-26 09:45:00,140.9,22.3,14.35,94.75
2021-02-26 10:00:00,141.5,21.7,14.35,94.75
2021-02-26 10:15:00,141.5,21.45,14.6,94.75
2021-02-26 10:30:00,141.0,21.7,14.85,94.75
2021-02-26 10:45:00,140.4,21.35,15.1,94.75
2021-02-26 11:00:00,140.75,22.05,14.75,94.75
2021-02-26 11:15:00,140.4,22.75,14.75,94.75
2021-02-26 11:30:00,140.9,23.1,15.0,94.0
2021-02-26 11:45:00,140.9,23.0,14.75,94.35
2021-02-26 12:00:00,141.95,22.75,14.3,93.65
2021-02-26 12:15:00,141.6,22.75,14.3,93.3
2021-02-26 12:30:00,140.55,23.45,14.65,93.3
2021-02-26 12:45:00,139.7,23.6,15.35,93.3
2021-02-26 13:00:00,139.95,23.35,15.35,93.3
2021-02-26 13:15:00,140.7,23.0,15.35,92.55
2021-02-26 13:30:00,141.2,23.6,14.25,92.55
2021-02-26 13:45:00,141.55,23.25,14.6,92.55
2021-02-26 14:00:00,141.2,23.25,14.95,91.85
2021-02-26 14:15:00,141.3,23.15,14.95,91.85
2021-02-26 14:30:00,141.9,22.9,14.95,91.85
2021-02-26 14:45:00,142.9,21.55,14.95,91.85
2021-02-26 15:00:00,143.1,21.3,14.6,92.6
2021-02-26 15:15:00,143.35,21.05,14.25,92.6
2021-02-26 15:30:00,143.35,21.05,14.25,92.6
2021-02-26 15:45:00,143.35,21.4,14.25,92.6
2021-02-26 16:00:00,144.3,21.05,14.0,92.6
2021-02-26 16:15:00,144.05,21.3,14.0,92.25
2021-02-26 16:30:00,144.3,20.8,13.9,92.6
2021-02-26 16:45:00,146.25,20.3,13.9,91.85
2021-02-26 17:00:00,146.4,20.15,14.25,91.85
2021-02-26 17:15:00,145.65,20.4,13.9,92.7
2021-02-26 17:30:00,143.3,21.8,13.4,93.45
2021-02-26 17:45:00,144.0,21.3,13.9,93.45
2021-02-26 18:00:00,144.5,21.05,14.05,92.7
2021-02-26 18:15:00,144.0,21.3,12.8,94.2
2021-02-26 18:30:00,144.25,20.7,12.8,93.85
2021-02-26 18:45:00,144.75,19.85,12.8,93.85
2021-02-26 19:00:00,144.25,20.35,12.8,93.85
2021-02-26 19:15:00,144.25,20.6,12.55,93.85
2021-02-26 19:30:00,145.2,20.35,12.2,93.5
2021-02-26 19:45:00,145.2,20.35,12.55,93.5
2021-02-26 20:00:00,144.25,20.6,12.55,93.5
2021-02-26 20:15:00,144.35,20.85,12.55,94.2
2021-02-26 20:30:00,144.45,21.1,12.55,94.55
2021-02-26 20:45:00,143.85,21.35,12.55,95.25
2021-02-26 21:00:00,144.1,21.45,12.55,95.25
2021-02-26 21:15:00,144.35,21.2,12.55,95.25
2021-02-26 21:30:00,143.0,21.45,12.55,96.0
2021-02-26 21:45:00,143.0,21.45,12.55,96.0
2021-02-26 22:00:00,143.5,20.95,12.55,96.0
2021-02-26 22:15:00,143.5,20.95,12.55,96.0
2021-02-26 22:30:00,143.75,20.7,12.55,96.0
2021-02-26 22:45:00,143.25,20.95,12.8,96.0
2021-02-26 23:00:00,143.25,20.95,12.8,96.0
2021-02-26 23:15:00,141.7,21.65,12.55,96.4
2021-02-26 23:30:00,141.45,21.4,13.05,96.4
2021-02-26 23:45:00,141.45,21.4,13.05,96.05
2021-02-27 00:00:00,141.3,21.55,13.05,96.05
2021-02-27 00:15:00,140.25,21.55,13.05,96.4
2021-02-27 00:30:00,140.25,21.65,12.2,97.15
2021-02-27 00:45:00,140.25,22.0,12.55,97.15
2021-02-27 01:00:00,140.25,22.0,12.55,97.15
2021-02-27 01:15:00,139.9,22.0,12.55,97.15
2021-02-27 01:30:00,140.3,21.5,12.3,97.5
2021-02-27 01:45:00,140.55,20.9,11.95,97.5
2021-02-27 02:00:00,140.2,20.9,11.95,97.5
2021-02-27 02:15:00,140.2,20.9,12.3,97.85
2021-02-27 02:30:00,139.95,21.5,12.3,97.85
2021-02-27 02:45:00,140.05,21.4,12.3,97.85
2021-02-27 03:00:00,139.8,20.9,12.3,98.25
2021-02-27 03:15:00,140.5,20.55,12.3,97.9
2021-02-27 03:30:00,141.35,20.55,12.55,97.5
2021-02-27 03:45:00,141.45,20.8,12.2,97.15
2021-02-27 04:00:00,141.5,21.15,12.2,96.75
2021-02-27 04:15:00,142.25,20.5,11.7,97.15
2021-02-27 04:30:00,142.65,20.5,11.7,96.75
2021-02-27 04:45:00,142.55,20.25,11.7,96.75
2021-02-27 05:00:00,142.65,20.75,11.45,96.75
2021-02-27 05:15:00,141.9,21.5,11.45,96.75
2021-02-27 05:30:00,142.4,21.5,11.7,96.0
2021-02-27 05:45:00,141.8,21.5,11.95,96.0
2021-02-27 06:00:00,141.9,21.5,12.2,96.0
2021-02-27 06:15:00,141.2,21.15,12.2,96.7
2021-02-27 06:30:00,141.8,21.15,12.3,96.7
2021-02-27 06:45:00,141.8,20.15,12.55,97.45
2021-02-27 07:00:00,143.15,19.9,12.55,96.7
2021-02-27 07:15:00,144.25,19.05,12.3,96.35
2021-02-27 07:30:00,144.25,19.15,12.55,96.35
2021-02-27 07:45:00,144.05,19.75,12.3,95.85
2021-02-27 08:00:00,143.4,20.6,12.45,95.85
2021-02-27 08:15:00,143.9,20.35,12.95,94.4
2021-02-27 08:30:00,142.9,21.6,12.35,94.4
2021-02-27 08:45:00,142.6,21.85,12.6,94.9
2021-02-27 09:00:00,143.85,21.1,12.6,94.4
2021-02-27 09:15:00,143.6,20.9,12.7,94.4
2021-02-27 09:30:00,143.0,20.55,13.3,94.75
2021-02-27 09:45:00,143.35,21.05,12.8,94.05
2021-02-27 10:00:00,143.35,20.8,13.05,94.05
2021-02-27 10:15:00,143.45,20.3,13.8,94.05
2021-02-27 10:30:00,143.8,19.85,13.55,94.05
2021-02-27 10:45:00,144.15,19.4,12.95,94.05
2021-02-27 11:00:00,144.5,19.15,13.2,94.05
2021-02-27 11:15:00,144.25,20.1,13.2,94.05
2021-02-27 11:30:00,145.2,20.1,12.95,94.05
2021-02-27 11:45:00,144.35,20.6,12.95,94.05
2021-02-27 12:00:00,144.25,20.7,12.95,93.7
2021-02-27 12:15:00,143.65,21.3,13.3,93.7
2021-02-27 12:30:00,143.2,21.05,13.65,93.7
2021-02-27 12:45:00,142.95,21.3,13.65,93.7
2021-02-27 13:00:00,142.35,21.8,13.05,93.7
2021-02-27 13:15:00,142.2,22.3,13.05,93.7
2021-02-27 13:30:00,143.2,21.55,12.8,93.7
2021-02-27 13:45:00,142.7,22.05,12.8,93.7
2021-02-27 14:00:00,143.05,22.05,12.8,93.7
2021-02-27 14:15:00,142.55,22.55,12.8,93.7
2021-02-27 14:30:00,142.55,22.9,12.8,93.7
2021-02-27 14:45:00,143.4,22.05,12.8,93.7
2021-02-27 15:00:00,143.9,21.8,12.55,93.7
2021-02-27 15:15:00,143.9,22.4,13.05,92.95
2021-02-27 15:30:00,144.0,22.65,13.05,92.95
2021-02-27 15:45:00,144.25,22.9,12.55,92.95
2021-02-27 16:00:00,143.25,23.15,12.9,94.05
2021-02-27 16:15:00,143.25,22.3,13.4,93.7
2021-02-27 16:30:00,142.75,22.55,13.65,93.7
2021-02-27 16:45:00,143.5,22.05,13.65,93.45
2021-02-27 17:00:00,144.1,21.45,13.65,93.45
2021-02-27 17:15:00,144.7,20.85,13.65,93.45
2021-02-27 17:30:00,143.0,21.6,13.15,94.2
2021-02-27 17:45:00,143.35,21.1,12.95,93.85
2021-02-27 18:00:00,143.0,21.0,12.7,94.2
2021-02-27 18:15:00,143.6,21.35,12.45,94.2
2021-02-27 18:30:00,143.6,21.0,12.45,94.2
2021-02-27 18:45:00,144.0,20.5,12.55,94.2
2021-02-27 19:00:00,143.6,20.5,12.2,94.95
2021-02-27 19:15:00,143.85,21.0,12.55,94.2
2021-02-27 19:30:00,143.7,21.75,12.3,94.2
2021-02-27 19:45:00,142.85,22.95,12.3,93.85
2021-02-27 20:00:00,142.5,22.95,12.3,93.85
2021-02-27 20:15:00,142.85,22.95,12.3,93.85
2021-02-27 20:30:00,142.6,23.2,12.3,93.85
2021-02-27 20:45:00,142.25,23.2,11.95,94.2
2021-02-27 21:00:00,142.0,23.05,11.95,94.95
2021-02-27 21:15:00,142.0,22.8,12.2,95.3
2021-02-27 21:30:00,142.25,22.55,12.2,95.65
2021-02-27 21:45:00,142.25,22.55,12.2,96.0
2021-02-27 22:00:00,142.15,22.3,12.2,96.0
2021-02-27 22:15:00,142.15,21.95,12.2,96.35
2021-02-27 22:30:00,141.8,22.05,12.45,96.35
2021-02-27 22:45:00,140.85,22.05,12.7,96.7
2021-02-27 23:00:00,141.1,22.05,12.799999999999999,96.7
2021-02-27 23:15:00,140.0,22.3,12.549999999999999,97.45
2021-02-27 23:30:00,140.35,21.8,13.049999999999999,97.45
2021-02-27 23:45:00,139.9,21.8,12.799999999999999,97.45
2021-02-28 00:00:00,140.25,21.9,13.049999999999999,97.1
2021-02-28 00:15:00,139.8,20.95,13.4,97.45
2021-02-28 00:30:00,139.65,21.8,13.4,97.45
2021-02-28 00:45:00,138.95,21.55,13.65,98.15
2021-02-28 01:00:00,138.95,21.55,13.3,98.15
2021-02-28 01:15:00,139.3,21.55,13.3,98.15
2021-02-28 01:30:00,140.15,21.55,12.8,97.8
2021-02-28 01:45:00,140.5,21.2,12.8,97.45
2021-02-28 02:00:00,140.5,21.2,12.8,97.45
2021-02-28 02:15:00,140.25,21.2,12.3,98.55
2021-02-28 02:30:00,140.0,21.05,12.3,99.3
2021-02-28 02:45:00,140.25,21.55,12.3,98.55
2021-02-28 03:00:00,139.75,21.05,12.2,99.3
2021-02-28 03:15:00,140.7,20.45,12.2,99.3
2021-02-28 03:30:00,140.5,20.1,12.45,98.9
2021-02-28 03:45:00,140.85,20.1,12.45,98.55
2021-02-28 04:00:00,141.95,19.7,12.8,98.2
2021-02-28 04:15:00,141.85,19.2,11.95,98.95
2021-02-28 04:30:00,141.75,18.95,11.95,99.3
2021-02-28 04:45:00,142.25,18.1,11.95,99.3
2021-02-28 05:00:00,142.5,17.85,12.3,99.3
2021-02-28 05:15:00,141.75,18.6,12.65,99.3
2021-02-28 05:30:00,142.0,19.1,12.65,98.55
2021-02-28 05:45:00,141.85,19.5,12.4,98.2
2021-02-28 06:00:00,141.15,19.5,12.75,97.85
2021-02-28 06:15:00,141.25,19.5,13.35,97.85
2021-02-28 06:30:00,140.9,19.85,13.35,97.85
2021-02-28 06:45:00,142.75,17.75,13.25,97.85
2021-02-28 07:00:00,143.6,17.25,13.25,97.5
2021-02-28 07:15:00,143.6,17.25,13.25,97.5
2021-02-28 07:30:00,143.6,17.6,13.25,97.5
2021-02-28 07:45:00,144.85,17.5,13.0,96.25
2021-02-28 08:00:00,144.7,18.35,13.0,96.25
2021-02-28 08:15:00,145.15,18.5,13.15,95.15
2021-02-28 08:30:00,144.8,18.75,13.65,94.75
2021-02-28 08:45:00,144.4,19.5,13.15,95.25
2021-02-28 09:00:00,144.3,19.75,13.5,94.75
2021-02-28 09:15:00,143.8,19.9,13.85,94.05
2021-02-28 09:30:00,142.5,19.65,14.45,94.65
2021-02-28 09:45:00,143.45,19.65,14.45,94.4
2021-02-28 10:00:00,143.95,19.15,14.1,94.4
2021-02-28 10:15:00,144.3,19.15,14.1,94.4
2021-02-28 10:30:00,144.3,19.15,14.1,94.4
2021-02-28 10:45:00,143.7,19.4,14.45,94.4
2021-02-28 11:00:00,144.05,19.4,14.1,94.4
2021-02-28 11:15:00,143.8,20.0,14.1,94.4
2021-02-28 11:30:00,143.55,20.0,14.35,94.4
2021-02-28 11:45:00,142.8,20.4,14.35,94.4
2021-02-28 12:00:00,143.5,20.4,13.65,94.05
2021-02-28 12:15:00,143.85,20.4,13.65,94.4
2021-02-28 12:30:00,144.35,20.15,13.75,94.4
2021-02-28 12:45:00,142.8,20.5,14.95,94.4
2021-02-28 13:00:00,142.55,20.4,14.95,94.4
2021-02-28 13:15:00,143.15,20.3,14.45,94.05
2021-02-28 13:30:00,145.1,19.55,13.25,94.05
2021-02-28 13:45:00,144.25,20.05,13.6,93.7
2021-02-28 14:00:00,143.9,20.05,13.6,94.05
2021-02-28 14:15:00,143.75,20.55,13.6,94.05
2021-02-28 14:30:00,143.65,20.3,13.6,94.05
2021-02-28 14:45:00,143.8,19.8,13.6,94.05
2021-02-28 15:00:00,144.6,20.4,13.25,94.05
2021-02-28 15:15:00,144.1,20.65,13.5,93.7
2021-02-28 15:30:00,144.0,20.65,13.25,94.4
2021-02-28 15:45:00,143.75,20.9,13.25,94.4
2021-02-28 16:00:00,143.5,20.9,13.85,94.05
2021-02-28 16:15:00,143.5,21.15,13.6,93.7
2021-02-28 16:30:00,143.6,21.15,14.2,93.35
2021-02-28 16:45:00,145.45,19.9,14.2,93.1
2021-02-28 17:00:00,144.35,19.9,14.2,93.85
2021-02-28 17:15:00,144.4,19.15,13.85,93.85
2021-02-28 17:30:00,142.15,20.65,13.85,94.6
2021-02-28 17:45:00,142.15,20.5,14.35,94.6
2021-02-28 18:00:00,141.8,20.75,13.75,94.6
2021-02-28 18:15:00,141.9,21.25,13.5,94.6
2021-02-28 18:30:00,141.9,21.6,13.5,94.6
2021-02-28 18:45:00,142.55,20.25,13.5,94.6
2021-02-28 19:00:00,142.75,20.75,13.15,94.6
2021-02-28 19:15:00,143.0,20.9,13.5,93.85
2021-02-28 19:30:00,142.85,21.4,13.5,93.85
2021-02-28 19:45:00,142.75,21.4,13.25,94.2
2021-02-28 20:00:00,142.75,21.65,13.0,94.55
2021-02-28 20:15:00,142.75,21.4,13.25,94.55
2021-02-28 20:30:00,142.15,21.65,13.25,94.9
2021-02-28 20:45:00,141.45,21.65,12.9,95.25
2021-02-28 21:00:00,142.05,21.75,12.9,95.25
2021-02-28 21:15:00,142.65,21.15,12.9,95.6
2021-02-28 21:30:00,142.85,20.9,12.9,95.65
2021-02-28 21:45:00,142.5,20.9,12.9,95.65
2021-02-28 22:00:00,142.75,20.65,12.9,96.0
2021-02-28 22:15:00,142.75,20.65,12.9,96.0
2021-02-28 22:30:00,143.0,20.4,12.9,96.0
2021-02-28 22:45:00,142.15,20.65,13.15,96.35
2021-02-28 23:00:00,141.8,20.65,13.15,96.7
2021-02-28 23:15:00,141.3,20.65,12.55,97.8
2021-02-28 23:30:00,140.7,20.4,13.4,98.15
2021-02-28 23:45:00,140.6,20.15,13.4,98.15
2021-03-01 00:00:00,140.0,21.1,13.4,97.8
2021-03-01 00:15:00,140.35,20.75,13.4,97.45
2021-03-01 00:30:00,140.6,20.5,13.4,97.45
2021-03-01 00:45:00,139.9,20.25,13.65,97.8
2021-03-01 01:00:00,139.9,20.25,14.0,97.45
2021-03-01 01:15:00,140.25,20.25,14.0,97.8
2021-03-01 01:30:00,140.15,20.5,13.85,97.8
2021-03-01 01:45:00,139.65,19.9,13.85,98.55
2021-03-01 02:00:00,140.0,20.25,13.85,98.2
2021-03-01 02:15:00,140.25,20.25,13.6,98.55
2021-03-01 02:30:00,140.25,20.25,13.6,98.55
2021-03-01 02:45:00,140.4,20.5,13.6,98.15
2021-03-01 03:00:00,139.55,20.85,13.35,98.9
2021-03-01 03:15:00,139.2,20.6,13.6,98.9
2021-03-01 03:30:00,139.7,20.95,13.85,98.15
2021-03-01 03:45:00,139.2,20.7,13.85,98.55
2021-03-01 04:00:00,139.7,20.2,13.85,98.2
2021-03-01 04:15:00,140.8,19.7,13.25,98.2
2021-03-01 04:30:00,140.95,19.2,13.25,98.2
2021-03-01 04:45:00,141.45,18.95,13.0,98.2
2021-03-01 05:00:00,141.1,18.95,13.0,98.2
2021-03-01 05:15:00,140.1,19.95,13.0,98.2
2021-03-01 05:30:00,139.35,20.95,12.75,98.2
2021-03-01 05:45:00,138.7,21.35,13.0,98.2
2021-03-01 06:00:00,139.15,21.95,13.0,97.5
2021-03-01 06:15:00,139.65,21.6,13.25,97.1
2021-03-01 06:30:00,140.05,21.7,12.75,97.8
2021-03-01 06:45:00,140.15,20.7,12.9,98.55
2021-03-01 07:00:00,142.6,19.1,13.15,97.45
2021-03-01 07:15:00,143.65,18.7,13.65,95.6
2021-03-01 07:30:00,143.4,20.25,14.15,94.85
2021-03-01 07:45:00,144.65,19.65,13.65,94.35
2021-03-01 08:00:00,143.65,20.4,14.25,94.0
2021-03-01 08:15:00,143.55,20.5,14.25,94.0
2021-03-01 08:30:00,142.4,20.8,14.75,94.0
2021-03-01 08:45:00,141.75,21.45,14.25,94.5
2021-03-01 09:00:00,140.9,22.45,14.25,94.0
2021-03-01 09:15:00,140.4,22.95,14.6,94.0
2021-03-01 09:30:00,139.65,22.5,15.1,94.0
2021-03-01 09:45:00,139.65,22.5,15.45,93.65
2021-03-01 10:00:00,140.0,22.85,15.45,93.65
2021-03-01 10:15:00,140.45,22.85,15.7,93.65
2021-03-01 10:30:00,140.95,22.0,15.7,94.35
2021-03-01 10:45:00,139.75,22.5,15.7,94.35
2021-03-01 11:00:00,139.85,22.5,14.5,94.75
2021-03-01 11:15:00,139.5,23.2,14.15,94.75
2021-03-01 11:30:00,139.75,23.3,14.55,94.0
2021-03-01 11:45:00,139.65,23.4,14.55,94.0
2021-03-01 12:00:00,139.65,23.3,14.65,93.65
2021-03-01 12:15:00,138.85,23.4,14.65,93.65
2021-03-01 12:30:00,138.2,24.75,15.0,93.3
2021-03-01 12:45:00,137.85,24.85,15.6,93.3
2021-03-01 13:00:00,137.65,24.25,15.7,93.3
2021-03-01 13:15:00,137.05,24.15,16.05,93.3
2021-03-01 13:30:00,138.15,24.15,14.95,93.3
2021-03-01 13:45:00,138.6,24.4,14.95,93.3
2021-03-01 14:00:00,138.25,24.4,15.3,93.65
2021-03-01 14:15:00,138.35,24.4,15.55,93.65
2021-03-01 14:30:00,139.0,24.15,15.55,92.9
2021-03-01 14:45:00,139.75,23.4,15.55,92.9
2021-03-01 15:00:00,141.55,22.9,14.95,92.9
2021-03-01 15:15:00,141.3,22.9,15.55,92.9
2021-03-01 15:30:00,141.1,22.4,15.55,92.9
2021-03-01 15:45:00,141.8,22.3,15.3,92.9
2021-03-01 16:00:00,141.8,21.95,15.65,92.9
2021-03-01 16:15:00,141.65,21.7,15.65,93.3
2021-03-01 16:30:00,140.6,21.45,15.9,93.3
2021-03-01 16:45:00,142.3,21.2,15.9,92.55
2021-03-01 17:00:00,142.2,20.95,15.9,92.55
2021-03-01 17:15:00,141.95,20.95,15.3,93.05
2021-03-01 17:30:00,140.95,22.3,15.3,93.05
2021-03-01 17:45:00,141.45,21.8,14.95,93.05
2021-03-01 18:00:00,142.15,22.05,14.7,93.05
2021-03-01 18:15:00,142.15,22.3,14.45,93.05
2021-03-01 18:30:00,141.8,22.3,14.1,93.05
2021-03-01 18:45:00,142.05,22.15,13.6,93.45
2021-03-01 19:00:00,141.85,22.05,13.5,93.85
2021-03-01 19:15:00,142.1,22.4,13.25,93.85
2021-03-01 19:30:00,141.85,22.05,13.85,93.85
2021-03-01 19:45:00,141.4,22.75,13.6,94.2
2021-03-01 20:00:00,140.8,22.65,13.6,94.55
2021-03-01 20:15:00,141.15,22.65,13.6,94.55
2021-03-01 20:30:00,140.2,22.9,13.6,94.9
2021-03-01 20:45:00,140.9,22.9,13.25,95.25
2021-03-01 21:00:00,140.55,23.25,13.6,95.25
2021-03-01 21:15:00,140.3,23.25,13.85,95.25
2021-03-01 21:30:00,139.9,23.25,13.85,96.0
2021-03-01 21:45:00,140.25,23.25,13.5,96.0
2021-03-01 22:00:00,141.0,22.75,13.25,96.0
2021-03-01 22:15:00,141.0,22.75,13.25,96.0
2021-03-01 22:30:00,141.6,22.85,12.9,96.35
2021-03-01 22:45:00,141.25,22.5,12.9,96.0
2021-03-01 23:00:00,141.25,22.5,12.9,96.0
2021-03-01 23:15:00,140.85,22.5,12.9,96.75
2021-03-01 23:30:00,139.75,23.1,13.4,96.75
2021-03-01 23:45:00,139.4,23.1,13.4,96.75
2021-03-02 00:00:00,140.0,22.85,13.05,96.75
2021-03-02 00:15:00,139.3,23.2,13.4,96.4
2021-03-02 00:30:00,139.65,22.85,13.4,96.4
2021-03-02 00:45:00,140.25,22.6,13.05,96.05
2021-03-02 01:00:00,140.25,22.6,13.05,96.05
2021-03-02 01:15:00,140.25,22.6,13.05,96.05
2021-03-02 01:30:00,140.15,22.6,12.8,96.4
2021-03-02 01:45:00,139.8,22.6,12.45,96.75
2021-03-02 02:00:00,139.8,22.6,12.45,96.75
2021-03-02 02:15:00,139.35,22.6,12.2,97.45
2021-03-02 02:30:00,139.7,22.6,12.55,97.45
2021-03-02 02:45:00,139.7,22.95,12.55,97.45
2021-03-02 03:00:00,140.05,22.95,11.85,97.8
2021-03-02 03:15:00,140.3,22.35,11.85,98.15
2021-03-02 03:30:00,139.55,22.6,11.95,98.9
2021-03-02 03:45:00,140.5,22.35,11.95,98.2
2021-03-02 04:00:00,140.7,21.95,12.2,97.45
2021-03-02 04:15:00,141.45,20.95,12.45,97.45
2021-03-02 04:30:00,142.05,20.35,12.1,97.45
2021-03-02 04:45:00,142.15,20.25,12.1,97.8
2021-03-02 05:00:00,141.3,20.6,12.2,98.55
2021-03-02 05:15:00,140.8,21.1,11.85,98.55
2021-03-02 05:30:00,140.3,21.85,11.6,98.55
2021-03-02 05:45:00,138.95,22.6,12.2,98.55
2021-03-02 06:00:00,139.15,23.45,11.85,98.2
2021-03-02 06:15:00,139.65,23.35,12.95,96.7
2021-03-02 06:30:00,139.65,23.7,12.95,96.35
2021-03-02 06:45:00,139.95,22.8,13.55,96.35
2021-03-02 07:00:00,141.45,22.4,13.55,95.6
2021-03-02 07:15:00,143.65,20.7,13.05,95.6
2021-03-02 07:30:00,143.9,20.1,13.8,94.85
2021-03-02 07:45:00,144.3,20.35,13.3,94.35
2021-03-02 08:00:00,143.0,20.35,13.55,95.05
2021-03-02 08:15:00,144.15,20.6,13.55,94.35
2021-03-02 08:30:00,142.2,21.6,13.8,94.35
2021-03-02 08:45:00,141.05,22.75,13.3,94.85
2021-03-02 09:00:00,142.15,22.15,12.95,94.35
2021-03-02 09:15:00,141.4,22.2,13.3,94.35
2021-03-02 09:30:00,142.45,21.6,13.55,94.35
2021-03-02 09:45:00,142.2,21.85,13.55,94.0
2021-03-02 10:00:00,142.45,21.35,13.8,94.0
2021-03-02 10:15:00,143.5,21.35,13.8,94.0
2021-03-02 10:30:00,143.25,21.0,14.05,94.35
2021-03-02 10:45:00,142.05,22.1,14.15,94.7
2021-03-02 11:00:00,141.55,22.35,12.95,94.75
2021-03-02 11:15:00,141.65,22.7,13.55,95.1
2021-03-02 11:30:00,142.05,22.3,13.95,94.35
2021-03-02 11:45:00,141.45,22.2,13.95,93.65
2021-03-02 12:00:00,141.35,21.95,14.3,93.65
2021-03-02 12:15:00,141.6,22.05,13.95,93.65
2021-03-02 12:30:00,140.05,22.45,14.05,93.3
2021-03-02 12:45:00,139.95,22.4,14.9,93.3
2021-03-02 13:00:00,140.65,22.4,14.9,92.95
2021-03-02 13:15:00,140.9,22.75,14.65,92.95
2021-03-02 13:30:00,139.95,23.5,14.15,92.95
2021-03-02 13:45:00,140.5,23.65,14.15,92.95
2021-03-02 14:00:00,140.5,23.65,14.15,92.95
2021-03-02 14:15:00,139.9,23.9,14.5,92.95
2021-03-02 14:30:00,140.9,23.65,14.5,92.2
2021-03-02 14:45:00,142.25,22.65,14.15,92.2
2021-03-02 15:00:00,142.85,22.75,13.8,92.2
2021-03-02 15:15:00,142.5,22.75,14.15,92.2
2021-03-02 15:30:00,143.45,22.5,14.5,92.2
2021-03-02 15:45:00,143.2,22.75,14.85,91.85
2021-03-02 16:00:00,142.5,22.75,14.85,91.85
2021-03-02 16:15:00,142.75,22.5,14.85,91.5
2021-03-02 16:30:00,143.35,21.9,14.5,91.5
2021-03-02 16:45:00,143.7,22.25,14.5,91.5
2021-03-02 17:00:00,143.95,21.55,14.25,91.5
2021-03-02 17:15:00,143.7,21.9,14.35,92.35
2021-03-02 17:30:00,143.2,22.9,13.15,92.35
2021-03-02 17:45:00,143.55,22.4,13.65,92.35
2021-03-02 18:00:00,143.55,22.4,13.65,92.0
2021-03-02 18:15:00,142.6,23.25,13.75,92.35
2021-03-02 18:30:00,142.5,22.75,13.25,93.45
2021-03-02 18:45:00,142.35,22.5,12.9,93.85
2021-03-02 19:00:00,143.8,22.15,12.55,92.75
2021-03-02 19:15:00,143.05,22.15,12.55,93.85
2021-03-02 19:30:00,142.35,22.85,12.9,93.5
2021-03-02 19:45:00,141.4,23.1,12.9,94.2
2021-03-02 20:00:00,142.0,22.75,12.65,93.5
2021-03-02 20:15:00,143.05,22.75,12.65,93.5
2021-03-02 20:30:00,142.7,22.75,12.65,93.5
2021-03-02 20:45:00,142.1,23.0,12.65,94.55
2021-03-02 21:00:00,142.7,23.1,12.65,94.55
2021-03-02 21:15:00,143.4,23.1,12.65,94.55
2021-03-02 21:30:00,141.8,23.35,12.9,95.3
2021-03-02 21:45:00,141.45,23.35,12.9,95.65
2021-03-02 22:00:00,142.3,22.85,12.9,95.65
2021-03-02 22:15:00,142.3,22.85,12.9,96.0
2021-03-02 22:30:00,142.55,22.6,12.9,96.0
2021-03-02 22:45:00,142.3,22.5,12.9,96.0
2021-03-02 23:00:00,141.95,22.15,12.55,96.35
2021-03-02 23:15:00,141.05,22.4,12.8,96.75
2021-03-02 23:30:00,141.05,22.15,13.05,96.4
2021-03-02 23:45:00,141.05,22.5,12.7,96.4
2021-03-03 00:00:00,140.95,22.0,13.3,96.75
2021-03-03 00:15:00,141.2,22.0,13.05,96.75
2021-03-03 00:30:00,141.55,21.4,13.3,96.4
2021-03-03 00:45:00,141.7,21.5,13.05,96.75
2021-03-03 01:00:00,142.05,21.25,13.3,96.4
2021-03-03 01:15:00,142.4,21.25,13.3,96.4
2021-03-03 01:30:00,142.05,21.6,13.3,95.7
2021-03-03 01:45:00,142.4,21.6,13.3,96.05
2021-03-03 02:00:00,142.05,21.6,13.3,96.05
2021-03-03 02:15:00,142.3,21.6,12.7,96.4
2021-03-03 02:30:00,142.55,21.85,12.2,96.4
2021-03-03 02:45:00,142.2,21.85,12.2,96.4
2021-03-03 03:00:00,142.2,22.2,12.55,96.05
2021-03-03 03:15:00,142.45,22.2,12.3,96.4
2021-03-03 03:30:00,142.45,21.95,12.2,96.05
2021-03-03 03:45:00,142.8,21.6,12.55,96.4
2021-03-03 04:00:00,142.45,21.25,12.55,96.05
2021-03-03 04:15:00,143.45,20.25,12.55,96.05
2021-03-03 04:30:00,143.7,20.35,12.55,95.7
2021-03-03 04:45:00,144.2,20.35,12.8,95.3
2021-03-03 05:00:00,143.5,20.35,12.8,95.65
2021-03-03 05:15:00,143.95,20.25,12.8,95.3
2021-03-03 05:30:00,143.45,21.0,12.55,95.3
2021-03-03 05:45:00,142.2,22.0,12.8,95.3
2021-03-03 06:00:00,141.45,22.75,12.8,94.95
2021-03-03 06:15:00,141.2,22.75,13.05,95.3
2021-03-03 06:30:00,140.7,23.6,13.05,95.3
2021-03-03 06:45:00,141.8,21.5,13.65,96.05
2021-03-03 07:00:00,142.8,20.9,14.0,94.95
2021-03-03 07:15:00,144.45,19.5,13.4,94.95
2021-03-03 07:30:00,144.85,19.75,14.25,93.45
2021-03-03 07:45:00,145.8,19.15,14.0,94.4
2021-03-03 08:00:00,145.2,19.15,14.6,93.7
2021-03-03 08:15:00,144.85,19.65,14.85,92.95
2021-03-03 08:30:00,144.2,21.0,14.5,92.25
2021-03-03 08:45:00,143.05,21.9,14.25,92.75
2021-03-03 09:00:00,143.3,21.8,13.55,92.25
2021-03-03 09:15:00,142.3,22.55,13.45,92.25
2021-03-03 09:30:00,142.3,22.3,14.049999999999999,92.95
2021-03-03 09:45:00,142.3,22.3,14.4,93.3
2021-03-03 10:00:00,143.0,22.05,15.0,93.3
2021-03-03 10:15:00,142.65,22.05,14.3,93.3
2021-03-03 10:30:00,142.15,22.4,15.15,93.3
2021-03-03 10:45:00,141.3,22.9,14.8,93.3
2021-03-03 11:00:00,140.7,23.5,14.4,93.35
2021-03-03 11:15:00,140.7,23.85,14.05,93.7
2021-03-03 11:30:00,141.2,23.35,14.8,92.6
2021-03-03 11:45:00,141.2,23.7,14.8,92.25
2021-03-03 12:00:00,141.2,23.0,14.8,91.9
2021-03-03 12:15:00,140.85,23.35,15.15,91.9
2021-03-03 12:30:00,140.95,23.85,15.25,91.9
2021-03-03 12:45:00,140.4,23.1,15.85,91.9
2021-03-03 13:00:00,140.4,22.75,15.85,91.9
2021-03-03 13:15:00,141.15,23.1,15.85,91.15
2021-03-03 13:30:00,140.8,23.6,15.35,91.15
2021-03-03 13:45:00,140.9,24.2,15.35,91.5
2021-03-03 14:00:00,140.9,24.2,15.35,91.5
2021-03-03 14:15:00,140.3,24.45,15.35,91.5
2021-03-03 14:30:00,141.0,24.45,15.0,91.5
2021-03-03 14:45:00,142.1,23.0,14.65,91.5
2021-03-03 15:00:00,143.9,22.25,15.0,91.5
2021-03-03 15:15:00,143.05,22.85,14.9,91.15
2021-03-03 15:30:00,144.0,22.6,14.9,91.15
2021-03-03 15:45:00,143.4,23.1,15.0,91.15
2021-03-03 16:00:00,143.65,22.85,15.35,91.15
2021-03-03 16:15:00,143.65,22.6,15.6,91.15
2021-03-03 16:30:00,143.9,22.35,15.25,90.8
2021-03-03 16:45:00,144.4,21.85,15.25,90.8
2021-03-03 17:00:00,144.3,21.5,15.0,90.8
2021-03-03 17:15:00,143.8,21.75,15.1,91.3
2021-03-03 17:30:00,144.1,22.15,14.75,91.65
2021-03-03 17:45:00,144.1,22.4,13.8,91.65
2021-03-03 18:00:00,144.7,22.4,13.55,91.65
2021-03-03 18:15:00,143.75,22.25,13.15,93.15
2021-03-03 18:30:00,143.4,22.25,13.15,93.15
2021-03-03 18:45:00,143.4,22.25,13.15,93.15
2021-03-03 19:00:00,145.1,22.0,12.8,92.4
2021-03-03 19:15:00,145.1,22.35,12.8,92.4
2021-03-03 19:30:00,143.3,22.35,12.8,93.15
2021-03-03 19:45:00,143.3,22.95,12.55,93.15
2021-03-03 20:00:00,142.9,23.1,12.8,93.5
2021-03-03 20:15:00,143.15,23.1,12.55,93.5
2021-03-03 20:30:00,142.65,22.85,12.55,94.25
2021-03-03 20:45:00,143.1,22.05,12.2,94.95
2021-03-03 21:00:00,142.75,22.4,12.2,94.95
2021-03-03 21:15:00,142.85,22.4,12.1,95.3
2021-03-03 21:30:00,142.25,22.65,12.1,94.95
2021-03-03 21:45:00,142.25,22.65,12.1,95.3
2021-03-03 22:00:00,142.4,22.5,12.1,94.95
2021-03-03 22:15:00,142.9,21.65,11.75,96.35
2021-03-03 22:30:00,143.15,21.4,11.75,95.65
2021-03-03 22:45:00,142.9,21.3,11.75,96.35
2021-03-03 23:00:00,142.8,21.3,11.5,96.35
2021-03-03 23:15:00,141.8,21.9,11.5,97.1
2021-03-03 23:30:00,141.65,21.65,12.25,96.75
2021-03-03 23:45:00,140.95,21.65,12.25,96.75
2021-03-04 00:00:00,141.65,21.65,12.25,96.4
2021-03-04 00:15:00,141.3,21.65,12.25,96.4
2021-03-04 00:30:00,141.3,21.3,12.25,96.4
2021-03-04 00:45:00,142.4,20.8,12.0,96.75
2021-03-04 01:00:00,142.4,20.8,12.35,96.75
2021-03-04 01:15:00,143.2,20.35,12.35,96.75
2021-03-04 01:30:00,143.7,20.1,12.1,96.4
2021-03-04 01:45:00,143.7,20.1,11.75,96.75
2021-03-04 02:00:00,143.7,20.1,11.75,96.75
2021-03-04 02:15:00,143.6,20.1,11.85,96.75
2021-03-04 02:30:00,143.95,20.1,11.5,96.75
2021-03-04 02:45:00,143.35,20.35,11.5,97.1
2021-03-04 03:00:00,143.35,20.35,11.5,96.4
2021-03-04 03:15:00,144.05,20.0,11.5,96.75
2021-03-04 03:30:00,143.7,19.75,11.75,96.4
2021-03-04 03:45:00,143.7,19.75,11.75,96.75
2021-03-04 04:00:00,143.6,19.85,12.1,96.4
2021-03-04 04:15:00,144.6,19.1,11.85,96.75
2021-03-04 04:30:00,144.6,19.1,11.5,96.4
2021-03-04 04:45:00,145.35,18.85,11.75,96.0
2021-03-04 05:00:00,145.0,18.85,11.75,95.65
2021-03-04 05:15:00,144.5,19.6,11.5,96.0
2021-03-04 05:30:00,144.0,20.0,11.25,96.0
2021-03-04 05:45:00,143.35,20.75,11.5,95.65
2021-03-04 06:00:00,142.6,21.6,11.75,95.65
2021-03-04 06:15:00,142.0,21.6,12.35,96.0
2021-03-04 06:30:00,142.15,21.35,12.1,95.65
2021-03-04 06:45:00,141.85,20.45,11.85,96.75
2021-03-04 07:00:00,143.05,20.2,12.35,96.0
2021-03-04 07:15:00,144.6,19.05,12.0,95.6
2021-03-04 07:30:00,144.85,18.45,12.0,95.6
2021-03-04 07:45:00,145.35,19.3,11.85,94.4
2021-03-04 08:00:00,143.9,20.25,12.0,94.75
2021-03-04 08:15:00,144.6,20.5,11.75,94.05
2021-03-04 08:30:00,143.1,22.35,11.75,94.4
2021-03-04 08:45:00,143.4,22.4,12.0,93.8
2021-03-04 09:00:00,143.65,22.4,12.6,93.65
2021-03-04 09:15:00,142.2,23.15,12.6,93.65
2021-03-04 09:30:00,140.5,22.95,13.45,94.0
2021-03-04 09:45:00,141.1,23.05,13.05,94.75
2021-03-04 10:00:00,141.85,22.3,13.8,94.0
2021-03-04 10:15:00,142.55,22.05,13.7,94.0
2021-03-04 10:30:00,141.35,22.65,14.3,94.0
2021-03-04 10:45:00,141.1,23.15,13.7,94.0
2021-03-04 11:00:00,141.2,22.9,13.45,94.75
2021-03-04 11:15:00,140.0,24.1,13.8,94.75
2021-03-04 11:30:00,140.5,24.2,14.3,94.0
2021-03-04 11:45:00,140.25,24.8,14.3,93.65
2021-03-04 12:00:00,140.15,24.2,13.6,93.65
2021-03-04 12:15:00,140.15,24.2,13.95,93.65
2021-03-04 12:30:00,139.45,24.2,14.3,93.65
2021-03-04 12:45:00,139.35,23.7,15.25,93.65
2021-03-04 13:00:00,139.0,23.7,15.25,93.65
2021-03-04 13:15:00,138.65,23.25,15.0,93.65
2021-03-04 13:30:00,138.55,23.5,14.5,93.3
2021-03-04 13:45:00,139.45,24.25,14.25,93.3
2021-03-04 14:00:00,139.1,23.9,14.6,93.3
2021-03-04 14:15:00,140.25,23.45,14.25,93.3
2021-03-04 14:30:00,140.85,23.55,14.25,93.3
2021-03-04 14:45:00,143.3,22.55,13.9,92.55
2021-03-04 15:00:00,143.3,21.8,13.55,93.3
2021-03-04 15:15:00,142.35,22.05,14.25,93.3
2021-03-04 15:30:00,142.35,22.05,14.25,93.3
2021-03-04 15:45:00,143.15,22.3,13.9,93.3
2021-03-04 16:00:00,142.45,22.3,14.25,93.3
2021-03-04 16:15:00,142.35,22.05,14.25,93.3
2021-03-04 16:30:00,143.3,21.55,14.5,92.6
2021-03-04 16:45:00,144.4,20.7,14.15,92.35
2021-03-04 17:00:00,145.25,20.8,13.9,92.35
2021-03-04 17:15:00,145.25,21.05,13.65,92.35
2021-03-04 17:30:00,144.0,22.05,13.15,93.1
2021-03-04 17:45:00,144.7,21.2,13.3,93.1
2021-03-04 18:00:00,145.2,21.2,13.55,92.35
2021-03-04 18:15:00,144.7,21.2,12.55,93.5
2021-03-04 18:30:00,144.0,21.9,12.55,93.5
2021-03-04 18:45:00,144.0,21.55,12.55,93.5
2021-03-04 19:00:00,144.25,21.65,12.55,93.5
2021-03-04 19:15:00,144.95,21.3,12.2,93.5
2021-03-04 19:30:00,144.85,21.05,12.2,93.5
2021-03-04 19:45:00,144.5,22.0,11.95,93.5
2021-03-04 20:00:00,142.7,22.15,12.9,93.5
2021-03-04 20:15:00,142.8,22.4,12.55,93.85
2021-03-04 20:30:00,143.25,22.3,12.55,94.2
2021-03-04 20:45:00,142.15,22.65,12.55,94.95
2021-03-04 21:00:00,142.3,22.15,12.55,94.95
2021-03-04 21:15:00,142.3,22.15,12.55,95.3
2021-03-04 21:30:00,142.4,22.75,12.55,94.95
2021-03-04 21:45:00,142.05,23.1,12.55,94.95
2021-03-04 22:00:00,142.55,22.6,12.55,94.95
2021-03-04 22:15:00,142.55,22.25,12.55,95.65
2021-03-04 22:30:00,143.05,21.75,12.55,95.65
2021-03-04 22:45:00,142.8,21.65,12.55,95.65
2021-03-04 23:00:00,142.8,21.65,12.55,95.65
2021-03-04 23:15:00,141.8,22.25,12.55,96.4
2021-03-04 23:30:00,140.95,22.0,13.3,96.75
2021-03-04 23:45:00,140.95,22.0,13.3,96.4
2021-03-05 00:00:00,141.45,22.1,13.05,96.4
2021-03-05 00:15:00,140.75,22.1,13.05,96.4
2021-03-05 00:30:00,140.85,21.75,13.3,96.4
2021-03-05 00:45:00,141.1,21.75,13.05,96.4
2021-03-05 01:00:00,140.85,21.5,12.8,97.15
2021-03-05 01:15:00,140.85,21.5,13.15,97.15
2021-03-05 01:30:00,141.35,21.5,12.65,97.15
2021-03-05 01:45:00,141.35,21.5,12.65,97.15
2021-03-05 02:00:00,141.85,21.5,12.9,96.4
2021-03-05 02:15:00,141.5,21.5,12.9,96.75
2021-03-05 02:30:00,142.55,21.15,12.9,96.4
2021-03-05 02:45:00,142.3,21.4,12.9,96.4
2021-03-05 03:00:00,142.65,21.05,12.9,96.05
2021-03-05 03:15:00,142.65,21.05,12.9,96.05
2021-03-05 03:30:00,142.15,20.8,12.9,96.8
2021-03-05 03:45:00,142.3,20.8,13.15,96.05
2021-03-05 04:00:00,142.95,20.55,12.8,96.0
2021-03-05 04:15:00,143.55,20.05,13.05,95.65
2021-03-05 04:30:00,144.2,19.3,12.8,96.0
2021-03-05 04:45:00,144.8,19.3,12.55,95.65
2021-03-05 05:00:00,143.95,19.3,12.65,96.4
2021-03-05 05:15:00,143.7,19.55,12.65,96.05
2021-03-05 05:30:00,143.45,20.8,12.05,95.3
2021-03-05 05:45:00,143.55,21.05,12.4,95.3
2021-03-05 06:00:00,142.8,21.55,11.95,95.3
2021-03-05 06:15:00,142.45,21.9,12.3,95.65
2021-03-05 06:30:00,142.8,21.9,11.95,95.3
2021-03-05 06:45:00,143.3,21.15,12.55,95.65
2021-03-05 07:00:00,144.5,20.05,12.8,95.3
2021-03-05 07:15:00,145.65,19.05,12.7,94.9
2021-03-05 07:30:00,146.0,19.05,12.7,94.55
2021-03-05 07:45:00,146.65,19.5,12.45,94.4
2021-03-05 08:00:00,146.15,20.0,12.45,94.75
2021-03-05 08:15:00,145.3,20.5,12.45,94.4
2021-03-05 08:30:00,144.05,21.25,12.95,94.4
2021-03-05 08:45:00,143.9,21.65,13.299999999999999,94.15
2021-03-05 09:00:00,143.8,21.9,14.0,93.65
2021-03-05 09:15:00,142.35,22.4,14.25,93.65
2021-03-05 09:30:00,141.4,22.05,14.5,94.0
2021-03-05 09:45:00,141.25,22.3,14.35,94.75
2021-03-05 10:00:00,141.85,22.05,14.35,94.75
2021-03-05 10:15:00,141.85,21.8,14.6,94.75
2021-03-05 10:30:00,141.35,22.05,14.85,94.4
2021-03-05 10:45:00,140.75,21.7,15.1,94.4
2021-03-05 11:00:00,141.45,21.7,14.75,94.75
2021-03-05 11:15:00,141.1,22.4,14.75,94.75
2021-03-05 11:30:00,141.6,22.4,15.0,94.35
2021-03-05 11:45:00,140.9,22.65,14.75,94.0
2021-03-05 12:00:00,141.6,23.1,14.3,93.65
2021-03-05 12:15:00,141.6,22.75,14.3,93.65
2021-03-05 12:30:00,140.9,22.75,14.65,93.65
2021-03-05 12:45:00,140.05,23.25,15.35,93.65
2021-03-05 13:00:00,140.3,22.65,15.35,93.65
2021-03-05 13:15:00,141.05,22.65,15.35,92.9
2021-03-05 13:30:00,141.9,22.9,14.25,92.9
2021-03-05 13:45:00,142.6,22.55,14.6,93.25
2021-03-05 14:00:00,142.25,22.2,14.6,92.9
2021-03-05 14:15:00,142.7,22.45,14.6,92.9
2021-03-05 14:30:00,143.3,22.55,14.6,92.9
2021-03-05 14:45:00,143.95,21.2,14.6,92.55
2021-03-05 15:00:00,144.15,20.95,13.9,93.3
2021-03-05 15:15:00,144.4,20.7,13.9,93.3
2021-03-05 15:30:00,144.4,20.7,13.9,93.3
2021-03-05 15:45:00,144.05,21.05,13.9,93.3
2021-03-05 16:00:00,144.65,21.05,13.65,92.95
2021-03-05 16:15:00,144.4,21.3,13.65,92.95
2021-03-05 16:30:00,144.65,20.8,13.9,92.6
2021-03-05 16:45:00,146.6,20.3,13.9,91.85
2021-03-05 17:00:00,146.75,20.15,13.9,91.85
2021-03-05 17:15:00,146.0,20.4,13.9,92.35
2021-03-05 17:30:00,143.65,21.8,13.4,93.45
2021-03-05 17:45:00,144.35,20.95,13.55,93.45
2021-03-05 18:00:00,145.2,20.7,14.05,92.7
2021-03-05 18:15:00,144.7,20.95,12.8,94.2
2021-03-05 18:30:00,144.25,20.7,12.8,94.55
2021-03-05 18:45:00,145.1,20.2,12.8,94.2
2021-03-05 19:00:00,144.6,20.7,12.8,94.2
2021-03-05 19:15:00,144.6,20.95,12.55,94.2
2021-03-05 19:30:00,144.85,20.7,12.2,94.2
2021-03-05 19:45:00,145.2,20.7,12.2,94.2
2021-03-05 20:00:00,144.25,20.95,12.2,94.2
2021-03-05 20:15:00,144.35,21.2,12.55,94.2
2021-03-05 20:30:00,144.45,21.45,12.55,94.55
2021-03-05 20:45:00,143.85,21.7,12.55,95.25
2021-03-05 21:00:00,144.1,21.8,12.55,95.25
2021-03-05 21:15:00,144.35,21.55,12.55,95.25
2021-03-05 21:30:00,143.0,21.8,12.55,96.0
2021-03-05 21:45:00,143.0,21.8,12.55,96.0
2021-03-05 22:00:00,143.5,21.3,12.55,96.0
2021-03-05 22:15:00,143.5,21.3,12.55,96.0
2021-03-05 22:30:00,143.4,21.05,12.55,96.0
2021-03-05 22:45:00,142.9,21.3,12.8,96.0
2021-03-05 23:00:00,142.9,21.3,12.8,96.0
2021-03-05 23:15:00,142.4,21.3,12.55,96.4
2021-03-05 23:30:00,142.15,21.05,13.05,96.4
2021-03-05 23:45:00,142.15,21.05,13.05,96.4
2021-03-06 00:00:00,141.65,21.55,13.05,96.4
2021-03-06 00:15:00,140.6,21.55,13.05,96.4
2021-03-06 00:30:00,140.6,22.0,12.2,97.15
2021-03-06 00:45:00,140.6,22.0,12.55,97.15
2021-03-06 01:00:00,140.6,22.0,12.55,97.15
2021-03-06 01:15:00,140.25,22.0,12.55,97.15
2021-03-06 01:30:00,140.65,21.5,12.3,97.5
2021-03-06 01:45:00,140.55,21.25,11.95,97.85
2021-03-06 02:00:00,140.55,21.25,11.95,97.5
2021-03-06 02:15:00,140.55,21.25,12.3,98.2
2021-03-06 02:30:00,140.3,21.5,12.3,97.5
2021-03-06 02:45:00,140.05,21.4,12.3,97.85
2021-03-06 03:00:00,139.8,20.9,12.3,98.6
2021-03-06 03:15:00,139.1,20.9,12.65,98.95
2021-03-06 03:30:00,139.95,20.9,12.9,98.2
2021-03-06 03:45:00,140.05,21.15,12.55,97.85
2021-03-06 04:00:00,140.8,21.15,12.2,97.8
2021-03-06 04:15:00,141.2,20.5,11.7,98.55
2021-03-06 04:30:00,141.95,20.5,11.7,97.8
2021-03-06 04:45:00,141.5,20.25,11.7,97.8
2021-03-06 05:00:00,141.95,20.75,11.8,97.8
2021-03-06 05:15:00,141.2,21.5,11.45,97.45
2021-03-06 05:30:00,141.7,21.5,11.7,96.7
2021-03-06 05:45:00,141.45,21.5,11.95,96.7
2021-03-06 06:00:00,141.2,21.5,12.2,96.35
2021-03-06 06:15:00,141.2,21.15,12.2,96.35
2021-03-06 06:30:00,141.8,21.15,11.95,96.35
2021-03-06 06:45:00,141.8,20.15,12.55,97.1
2021-03-06 07:00:00,143.15,19.9,12.55,96.35
2021-03-06 07:15:00,144.6,19.05,11.95,96.35
2021-03-06 07:30:00,144.6,19.15,12.2,96.35
2021-03-06 07:45:00,144.75,19.75,12.3,95.5
2021-03-06 08:00:00,144.1,20.6,12.8,95.15
2021-03-06 08:15:00,144.25,20.35,13.3,94.05
2021-03-06 08:30:00,143.25,21.6,12.7,94.05
2021-03-06 08:45:00,142.6,21.85,12.95,94.2
2021-03-06 09:00:00,143.85,21.1,12.95,94.05
2021-03-06 09:15:00,143.6,20.9,13.05,94.4
2021-03-06 09:30:00,143.0,20.55,13.65,94.75
2021-03-06 09:45:00,143.35,21.05,13.15,94.4
2021-03-06 10:00:00,143.35,20.8,13.4,94.05
2021-03-06 10:15:00,143.1,20.3,14.15,94.05
2021-03-06 10:30:00,143.45,19.85,13.9,94.05
2021-03-06 10:45:00,143.8,19.75,13.3,94.4
2021-03-06 11:00:00,144.15,19.5,13.55,94.05
2021-03-06 11:15:00,144.25,20.1,13.55,94.4
2021-03-06 11:30:00,145.2,20.1,13.3,94.05
2021-03-06 11:45:00,144.35,20.6,13.3,94.05
2021-03-06 12:00:00,144.25,20.7,13.3,93.7
2021-03-06 12:15:00,143.3,21.3,13.65,94.05
2021-03-06 12:30:00,142.85,21.05,14.0,94.05
2021-03-06 12:45:00,142.6,21.3,14.0,94.05
2021-03-06 13:00:00,142.7,21.8,13.4,93.7
2021-03-06 13:15:00,142.55,22.3,13.4,93.7
2021-03-06 13:30:00,143.55,21.55,13.15,93.7
2021-03-06 13:45:00,143.05,21.7,13.15,94.05
2021-03-06 14:00:00,143.4,21.7,13.15,94.05
2021-03-06 14:15:00,142.9,22.55,13.15,94.05
2021-03-06 14:30:00,142.9,22.9,13.15,94.05
2021-03-06 14:45:00,143.4,22.05,13.15,94.05
2021-03-06 15:00:00,143.9,21.8,12.9,94.05
2021-03-06 15:15:00,143.9,22.4,13.05,93.3
2021-03-06 15:30:00,143.65,22.3,13.4,93.3
2021-03-06 15:45:00,144.25,22.55,12.9,93.3
2021-03-06 16:00:00,143.25,23.15,13.25,94.05
2021-03-06 16:15:00,143.25,22.3,13.75,93.7
2021-03-06 16:30:00,142.75,22.55,14.0,93.7
2021-03-06 16:45:00,143.85,22.05,14.0,93.1
2021-03-06 17:00:00,144.45,21.45,14.0,93.1
2021-03-06 17:15:00,145.05,20.85,14.0,93.1
2021-03-06 17:30:00,143.7,21.25,13.5,93.85
2021-03-06 17:45:00,144.05,20.75,13.65,93.5
2021-03-06 18:00:00,144.05,20.65,13.4,93.5
2021-03-06 18:15:00,144.65,21.0,12.8,93.85
2021-03-06 18:30:00,143.95,20.65,12.8,93.85
2021-03-06 18:45:00,144.35,20.15,12.9,94.2
2021-03-06 19:00:00,143.6,20.15,12.55,94.95
2021-03-06 19:15:00,143.85,20.65,12.9,94.2
2021-03-06 19:30:00,144.05,21.4,12.65,94.2
2021-03-06 19:45:00,143.2,22.6,12.65,93.85
2021-03-06 20:00:00,142.5,22.6,12.65,94.2
2021-03-06 20:15:00,142.85,22.6,12.65,94.2
2021-03-06 20:30:00,142.6,22.85,12.65,94.2
2021-03-06 20:45:00,141.9,22.85,12.3,94.9
2021-03-06 21:00:00,141.65,22.7,12.3,95.65
2021-03-06 21:15:00,141.65,22.45,12.55,96.0
2021-03-06 21:30:00,141.9,22.2,12.55,96.0
2021-03-06 21:45:00,141.9,22.2,12.55,96.35
2021-03-06 22:00:00,141.8,21.95,12.55,96.35
2021-03-06 22:15:00,142.15,21.6,12.55,97.05
2021-03-06 22:30:00,141.45,21.7,12.8,97.05
2021-03-06 22:45:00,141.55,21.7,13.05,96.7
2021-03-06 23:00:00,141.8,21.35,13.15,96.35
2021-03-06 23:15:00,140.7,21.6,12.9,97.1
2021-03-06 23:30:00,141.05,21.1,13.4,97.1
2021-03-06 23:45:00,140.95,20.75,13.15,97.1
2021-03-07 00:00:00,141.3,20.85,13.4,96.75
2021-03-07 00:15:00,141.2,20.25,13.75,96.75
2021-03-07 00:30:00,141.05,21.1,13.75,96.75
2021-03-07 00:45:00,141.05,20.85,14.0,96.75
2021-03-07 01:00:00,141.05,20.85,13.65,96.75
2021-03-07 01:15:00,141.05,20.85,13.65,96.75
2021-03-07 01:30:00,142.25,20.85,13.15,96.4
2021-03-07 01:45:00,141.9,20.85,13.15,96.4
2021-03-07 02:00:00,141.9,20.5,13.15,96.05
2021-03-07 02:15:00,141.65,20.5,12.65,97.15
2021-03-07 02:30:00,141.4,20.0,12.65,97.9
2021-03-07 02:45:00,140.95,20.5,12.65,97.85
2021-03-07 03:00:00,140.8,20.0,12.55,98.25
2021-03-07 03:15:00,141.05,19.75,12.55,98.6
2021-03-07 03:30:00,141.55,19.75,12.8,97.85
2021-03-07 03:45:00,141.55,19.75,12.8,97.85
2021-03-07 04:00:00,143.0,19.0,12.8,97.15
2021-03-07 04:15:00,143.25,18.5,12.3,97.9
2021-03-07 04:30:00,143.15,18.25,12.3,97.9
2021-03-07 04:45:00,143.3,17.75,12.3,98.6
2021-03-07 05:00:00,143.9,17.5,12.65,98.25
2021-03-07 05:15:00,142.8,18.25,13.0,98.25
2021-03-07 05:30:00,143.05,18.75,13.0,97.5
2021-03-07 05:45:00,143.6,19.15,12.75,97.15
2021-03-07 06:00:00,142.9,19.15,12.75,97.15
2021-03-07 06:15:00,142.65,19.15,13.35,97.15
2021-03-07 06:30:00,141.95,19.5,13.35,97.5
2021-03-07 06:45:00,143.1,17.4,13.25,97.85
2021-03-07 07:00:00,143.95,16.9,13.25,97.5
2021-03-07 07:15:00,143.95,16.9,13.25,97.5
2021-03-07 07:30:00,144.3,17.25,13.25,97.15
2021-03-07 07:45:00,145.9,17.15,13.0,95.9
2021-03-07 08:00:00,145.4,18.0,13.0,95.9
2021-03-07 08:15:00,145.5,18.15,13.5,94.8
2021-03-07 08:30:00,145.15,18.4,14.0,94.05
2021-03-07 08:45:00,144.75,19.15,13.5,94.55
2021-03-07 09:00:00,144.65,19.4,13.85,94.05
2021-03-07 09:15:00,144.15,19.55,14.2,94.05
2021-03-07 09:30:00,142.85,19.3,14.8,94.65
2021-03-07 09:45:00,143.8,19.3,14.8,94.4
2021-03-07 10:00:00,144.3,18.8,14.45,94.4
2021-03-07 10:15:00,144.3,18.8,14.45,94.4
2021-03-07 10:30:00,144.3,18.8,14.45,94.4
2021-03-07 10:45:00,143.35,19.4,14.45,94.4
2021-03-07 11:00:00,143.7,19.4,14.1,94.4
2021-03-07 11:15:00,143.45,20.0,14.1,94.4
2021-03-07 11:30:00,143.2,20.0,14.35,94.4
2021-03-07 11:45:00,142.45,20.4,14.35,94.4
2021-03-07 12:00:00,142.8,20.4,14.0,94.05
2021-03-07 12:15:00,143.5,20.4,14.0,93.7
2021-03-07 12:30:00,144.35,20.15,14.1,93.7
2021-03-07 12:45:00,142.8,20.5,15.3,93.7
2021-03-07 13:00:00,142.55,20.4,15.3,93.7
2021-03-07 13:15:00,143.15,20.3,14.8,93.35
2021-03-07 13:30:00,145.45,19.55,13.6,93.35
2021-03-07 13:45:00,144.95,20.05,13.95,93.7
2021-03-07 14:00:00,144.6,20.05,13.95,93.7
2021-03-07 14:15:00,144.1,20.55,13.95,93.35
2021-03-07 14:30:00,144.0,20.3,13.95,93.35
2021-03-07 14:45:00,143.8,19.8,13.95,93.35
2021-03-07 15:00:00,144.6,20.4,13.6,93.35
2021-03-07 15:15:00,144.45,20.65,13.5,93.35
2021-03-07 15:30:00,144.35,20.65,13.6,93.7
2021-03-07 15:45:00,144.1,20.9,13.6,93.7
2021-03-07 16:00:00,143.85,20.9,14.2,93.35
2021-03-07 16:15:00,143.5,21.15,13.95,93.0
2021-03-07 16:30:00,143.6,21.15,14.2,92.65
2021-03-07 16:45:00,145.45,19.9,14.2,92.4
2021-03-07 17:00:00,144.35,19.9,14.2,93.5
2021-03-07 17:15:00,144.4,19.15,13.85,93.5
2021-03-07 17:30:00,142.15,20.65,13.85,94.25
2021-03-07 17:45:00,142.85,20.5,14.35,94.25
2021-03-07 18:00:00,142.5,20.75,14.1,94.25
2021-03-07 18:15:00,142.6,21.25,13.5,94.25
2021-03-07 18:30:00,142.6,21.6,13.5,94.6
2021-03-07 18:45:00,142.9,20.6,13.5,94.6
2021-03-07 19:00:00,143.1,20.75,13.15,94.6
2021-03-07 19:15:00,143.0,21.25,13.5,93.85
2021-03-07 19:30:00,142.85,21.75,13.5,93.85
2021-03-07 19:45:00,142.4,21.75,13.25,94.2
2021-03-07 20:00:00,142.4,22.0,13.0,94.55
2021-03-07 20:15:00,142.4,21.75,13.25,94.55
2021-03-07 20:30:00,141.8,22.0,13.25,94.9
2021-03-07 20:45:00,141.45,22.0,13.25,94.9
2021-03-07 21:00:00,142.05,22.1,13.25,94.2
2021-03-07 21:15:00,143.0,21.5,13.25,94.55
2021-03-07 21:30:00,142.85,21.25,13.25,94.95
2021-03-07 21:45:00,142.5,21.25,13.25,95.3
2021-03-07 22:00:00,142.75,21.0,13.25,95.65
2021-03-07 22:15:00,142.75,21.0,13.25,96.0
2021-03-07 22:30:00,143.0,20.75,13.25,95.65
2021-03-07 22:45:00,142.5,21.0,13.5,96.0
2021-03-07 23:00:00,142.5,21.0,13.5,95.65
2021-03-07 23:15:00,141.65,21.0,12.9,96.75
2021-03-07 23:30:00,141.05,20.75,13.75,96.75
2021-03-07 23:45:00,140.95,20.5,13.75,96.75
2021-03-08 00:00:00,140.7,21.45,13.75,96.4
2021-03-08 00:15:00,141.4,21.1,13.75,96.05
2021-03-08 00:30:00,141.65,20.85,13.75,96.05
2021-03-08 00:45:00,140.6,20.25,14.0,96.4
2021-03-08 01:00:00,140.95,20.25,14.0,96.4
2021-03-08 01:15:00,140.6,20.25,14.35,96.75
2021-03-08 01:30:00,141.2,20.5,13.85,96.75
2021-03-08 01:45:00,140.7,19.9,13.85,97.5
2021-03-08 02:00:00,141.05,19.9,13.85,97.15
2021-03-08 02:15:00,141.3,19.9,13.6,97.5
2021-03-08 02:30:00,140.95,19.9,13.6,97.5
2021-03-08 02:45:00,141.45,20.15,13.6,96.75
2021-03-08 03:00:00,140.95,20.5,13.35,97.5
2021-03-08 03:15:00,140.25,20.25,13.6,97.5
2021-03-08 03:30:00,141.1,20.6,13.85,96.75
2021-03-08 03:45:00,140.6,20.35,13.85,97.5
2021-03-08 04:00:00,141.1,19.85,13.85,97.15
2021-03-08 04:15:00,141.5,19.7,13.25,97.5
2021-03-08 04:30:00,142.0,19.2,13.25,97.15
2021-03-08 04:45:00,142.5,18.95,13.0,97.15
2021-03-08 05:00:00,142.5,18.95,13.0,97.15
2021-03-08 05:15:00,141.15,19.95,13.0,97.15
2021-03-08 05:30:00,140.05,21.3,12.75,97.5
2021-03-08 05:45:00,139.75,21.7,13.0,97.15
2021-03-08 06:00:00,139.5,22.3,13.0,97.15
2021-03-08 06:15:00,140.35,21.95,13.25,96.75
2021-03-08 06:30:00,140.4,22.05,12.75,97.45
2021-03-08 06:45:00,140.5,21.05,12.9,98.2
2021-03-08 07:00:00,142.95,19.45,13.15,97.1
2021-03-08 07:15:00,143.65,19.4,13.65,95.6
2021-03-08 07:30:00,143.75,20.6,14.15,94.5
2021-03-08 07:45:00,144.65,20.0,13.65,94.0
2021-03-08 08:00:00,143.3,20.75,14.25,94.0
2021-03-08 08:15:00,143.55,20.85,14.25,94.0
2021-03-08 08:30:00,142.4,21.15,14.75,94.0
2021-03-08 08:45:00,141.75,21.8,14.25,94.5
2021-03-08 09:00:00,140.9,22.8,14.25,94.0
2021-03-08 09:15:00,140.4,23.3,14.6,94.0
2021-03-08 09:30:00,139.65,22.85,15.1,94.0
2021-03-08 09:45:00,139.65,22.85,15.45,93.65
2021-03-08 10:00:00,140.0,23.2,15.45,93.65
2021-03-08 10:15:00,140.45,23.2,15.7,93.65
2021-03-08 10:30:00,140.95,22.35,15.7,94.0
2021-03-08 10:45:00,140.1,22.85,15.7,94.0
2021-03-08 11:00:00,140.2,22.85,14.5,94.4
2021-03-08 11:15:00,140.2,23.55,14.15,94.4
2021-03-08 11:30:00,140.45,23.3,14.55,94.0
2021-03-08 11:45:00,140.0,23.4,14.55,93.3
2021-03-08 12:00:00,140.0,23.3,14.65,93.3
2021-03-08 12:15:00,139.55,23.4,14.65,93.3
2021-03-08 12:30:00,138.9,24.75,15.0,92.95
2021-03-08 12:45:00,138.55,24.85,15.6,92.95
2021-03-08 13:00:00,138.35,24.25,15.7,92.95
2021-03-08 13:15:00,137.75,24.15,16.05,92.95
2021-03-08 13:30:00,138.5,24.15,14.95,93.3
2021-03-08 13:45:00,138.95,24.4,14.95,93.3
2021-03-08 14:00:00,138.95,24.4,15.3,93.65
2021-03-08 14:15:00,138.7,24.4,15.55,93.3
2021-03-08 14:30:00,140.05,24.15,15.55,92.9
2021-03-08 14:45:00,140.45,23.4,15.55,92.55
2021-03-08 15:00:00,141.9,22.9,14.95,92.55
2021-03-08 15:15:00,142.0,22.9,15.55,92.55
2021-03-08 15:30:00,141.8,22.05,15.55,92.55
2021-03-08 15:45:00,141.8,22.3,15.3,92.55
2021-03-08 16:00:00,141.8,21.95,15.65,92.55
2021-03-08 16:15:00,142.0,21.7,15.65,92.95
2021-03-08 16:30:00,140.95,21.45,15.9,92.95
2021-03-08 16:45:00,142.65,21.2,15.9,92.55
2021-03-08 17:00:00,142.2,20.95,15.55,92.55
2021-03-08 17:15:00,142.65,20.95,14.95,93.05
2021-03-08 17:30:00,141.65,22.3,14.95,93.05
2021-03-08 17:45:00,142.15,21.8,14.6,93.05
2021-03-08 18:00:00,142.85,22.05,14.7,93.05
2021-03-08 18:15:00,143.2,22.3,14.45,93.05
2021-03-08 18:30:00,142.85,22.3,14.1,93.05
2021-03-08 18:45:00,143.1,22.15,13.6,93.45
2021-03-08 19:00:00,142.9,22.05,13.5,94.2
2021-03-08 19:15:00,142.8,22.4,13.25,94.2
2021-03-08 19:30:00,142.55,22.05,13.85,94.2
2021-03-08 19:45:00,142.1,22.75,13.25,94.55
2021-03-08 20:00:00,141.5,22.65,13.6,94.9
2021-03-08 20:15:00,141.85,22.65,13.6,94.9
2021-03-08 20:30:00,140.9,22.9,13.25,94.9
2021-03-08 20:45:00,141.6,22.9,12.9,95.25
2021-03-08 21:00:00,140.9,23.25,13.25,95.6
2021-03-08 21:15:00,140.65,23.25,13.5,95.25
2021-03-08 21:30:00,140.25,23.25,13.5,96.0
2021-03-08 21:45:00,140.6,23.25,13.15,96.0
2021-03-08 22:00:00,141.35,22.75,12.9,96.0
2021-03-08 22:15:00,141.35,22.75,12.9,96.35
2021-03-08 22:30:00,141.95,22.85,12.9,96.35
2021-03-08 22:45:00,141.25,22.5,12.9,96.0
2021-03-08 23:00:00,141.25,22.5,12.9,96.0
2021-03-08 23:15:00,140.85,22.5,12.9,96.75
2021-03-08 23:30:00,140.1,22.75,13.4,96.75
2021-03-08 23:45:00,139.4,22.75,13.4,97.1
2021-03-09 00:00:00,140.35,22.5,13.05,96.75
2021-03-09 00:15:00,139.3,22.85,13.4,96.75
2021-03-09 00:30:00,139.65,22.5,13.4,96.75
2021-03-09 00:45:00,139.55,22.25,12.7,97.45
2021-03-09 01:00:00,139.55,22.25,12.7,97.45
2021-03-09 01:15:00,139.55,22.25,12.7,97.45
2021-03-09 01:30:00,139.45,22.25,12.8,97.45
2021-03-09 01:45:00,139.45,22.25,12.8,97.45
2021-03-09 02:00:00,139.45,22.25,12.45,97.8
2021-03-09 02:15:00,139.7,22.25,12.2,97.8
2021-03-09 02:30:00,140.05,22.25,12.2,97.8
2021-03-09 02:45:00,140.05,22.6,12.2,97.8
2021-03-09 03:00:00,140.4,22.6,12.2,97.8
2021-03-09 03:15:00,140.3,22.35,12.2,98.15
2021-03-09 03:30:00,139.55,22.6,11.95,98.9
2021-03-09 03:45:00,140.15,22.35,12.3,98.55
2021-03-09 04:00:00,140.7,21.95,12.55,97.45
2021-03-09 04:15:00,141.45,20.95,12.8,97.45
2021-03-09 04:30:00,142.4,20.0,12.45,97.45
2021-03-09 04:45:00,142.15,20.25,12.1,97.8
2021-03-09 05:00:00,141.3,20.6,11.85,98.55
2021-03-09 05:15:00,140.8,20.75,11.85,98.55
2021-03-09 05:30:00,140.3,21.85,11.6,98.55
2021-03-09 05:45:00,138.95,22.25,12.55,98.55
2021-03-09 06:00:00,139.5,23.1,12.2,97.85
2021-03-09 06:15:00,140.0,23.0,13.65,96.0
2021-03-09 06:30:00,139.3,23.35,13.65,96.35
2021-03-09 06:45:00,139.95,22.45,13.9,96.0
2021-03-09 07:00:00,141.45,22.05,13.9,95.25
2021-03-09 07:15:00,143.65,20.35,13.4,95.25
2021-03-09 07:30:00,143.9,19.75,14.15,94.5
2021-03-09 07:45:00,145.0,20.0,13.65,94.0
2021-03-09 08:00:00,144.4,20.0,13.9,94.0
2021-03-09 08:15:00,145.2,20.25,13.9,93.65
2021-03-09 08:30:00,143.25,21.25,14.15,93.65
2021-03-09 08:45:00,141.75,22.4,13.65,94.5
2021-03-09 09:00:00,142.85,21.8,13.3,94.0
2021-03-09 09:15:00,142.1,21.85,13.65,94.0
2021-03-09 09:30:00,142.8,21.25,13.9,94.0
2021-03-09 09:45:00,142.55,21.5,13.9,94.0
2021-03-09 10:00:00,142.8,21.0,14.15,94.0
2021-03-09 10:15:00,143.85,21.0,14.15,94.0
2021-03-09 10:30:00,143.6,20.65,14.4,93.65
2021-03-09 10:45:00,142.4,21.75,14.5,94.0
2021-03-09 11:00:00,141.9,22.0,13.3,94.4
2021-03-09 11:15:00,142.0,22.35,13.9,94.75
2021-03-09 11:30:00,142.4,21.95,14.3,94.0
2021-03-09 11:45:00,141.8,21.85,13.95,93.3
2021-03-09 12:00:00,141.35,21.6,14.3,93.65
2021-03-09 12:15:00,141.95,22.05,13.95,93.65
2021-03-09 12:30:00,140.4,22.45,14.05,93.65
2021-03-09 12:45:00,140.3,22.4,14.9,93.65
2021-03-09 13:00:00,141.0,22.4,14.9,93.3
2021-03-09 13:15:00,141.25,22.75,14.65,93.3
2021-03-09 13:30:00,140.3,23.5,14.15,93.3
2021-03-09 13:45:00,140.85,23.65,14.15,93.3
2021-03-09 14:00:00,140.85,23.65,14.15,93.3
2021-03-09 14:15:00,140.25,23.9,14.5,92.95
2021-03-09 14:30:00,141.25,23.65,14.5,92.2
2021-03-09 14:45:00,142.25,22.65,14.15,92.2
2021-03-09 15:00:00,142.85,22.75,13.8,92.2
2021-03-09 15:15:00,142.15,22.75,14.5,92.55
2021-03-09 15:30:00,143.1,22.5,14.5,92.55
2021-03-09 15:45:00,142.5,22.75,14.85,92.55
2021-03-09 16:00:00,142.15,22.75,14.85,92.2
2021-03-09 16:15:00,142.75,22.5,14.85,91.85
2021-03-09 16:30:00,143.35,21.9,14.5,91.5
2021-03-09 16:45:00,143.7,22.25,14.5,91.5
2021-03-09 17:00:00,143.6,21.9,13.9,91.85
2021-03-09 17:15:00,143.35,21.9,14.0,92.35
2021-03-09 17:30:00,143.2,22.9,12.8,92.7
2021-03-09 17:45:00,143.55,22.4,13.3,92.7
2021-03-09 18:00:00,143.55,22.4,13.3,92.0
2021-03-09 18:15:00,142.6,23.25,13.4,92.35
2021-03-09 18:30:00,142.5,22.75,12.9,93.45
2021-03-09 18:45:00,142.0,22.5,12.55,93.85
2021-03-09 19:00:00,143.8,22.15,12.2,93.1
2021-03-09 19:15:00,143.05,22.15,12.55,93.5
2021-03-09 19:30:00,142.0,22.85,12.9,93.85
2021-03-09 19:45:00,141.75,23.1,12.9,94.55
2021-03-09 20:00:00,142.0,22.75,12.65,93.85
2021-03-09 20:15:00,143.05,22.75,12.65,93.85
2021-03-09 20:30:00,142.7,22.75,12.65,93.85
2021-03-09 20:45:00,142.1,23.0,12.3,94.55
2021-03-09 21:00:00,142.7,23.1,12.3,94.9
2021-03-09 21:15:00,143.4,23.1,12.3,94.9
2021-03-09 21:30:00,141.8,23.35,12.55,95.65
2021-03-09 21:45:00,141.45,23.35,12.55,96.0
2021-03-09 22:00:00,142.3,22.85,12.55,96.0
2021-03-09 22:15:00,142.3,22.85,12.55,96.35
2021-03-09 22:30:00,142.55,22.6,12.55,96.35
2021-03-09 22:45:00,142.3,22.85,12.55,96.35
2021-03-09 23:00:00,141.95,22.5,12.55,96.35
2021-03-09 23:15:00,141.05,22.75,12.8,96.75
2021-03-09 23:30:00,141.05,22.5,13.05,96.4
2021-03-09 23:45:00,141.05,22.85,12.7,96.4
2021-03-10 00:00:00,140.95,22.35,13.3,96.4
2021-03-10 00:15:00,141.2,22.35,13.05,96.4
2021-03-10 00:30:00,141.55,21.75,13.3,96.4
2021-03-10 00:45:00,141.7,21.5,13.05,96.4
2021-03-10 01:00:00,142.05,21.25,13.3,96.05
2021-03-10 01:15:00,142.4,21.25,13.3,96.05
2021-03-10 01:30:00,142.4,21.25,13.3,96.05
2021-03-10 01:45:00,142.4,21.25,13.3,96.4
2021-03-10 02:00:00,142.05,21.25,13.3,96.05
2021-03-10 02:15:00,142.3,21.25,12.7,96.4
2021-03-10 02:30:00,142.55,21.5,12.2,96.75
2021-03-10 02:45:00,141.85,21.85,12.2,96.75
2021-03-10 03:00:00,141.85,22.2,12.55,96.4
2021-03-10 03:15:00,142.45,21.85,12.3,96.75
2021-03-10 03:30:00,142.45,21.6,12.2,96.4
2021-03-10 03:45:00,142.1,21.6,12.2,96.75
2021-03-10 04:00:00,142.1,21.25,11.85,96.75
2021-03-10 04:15:00,143.1,20.25,11.85,96.75
2021-03-10 04:30:00,143.35,20.35,11.85,96.4
2021-03-10 04:45:00,143.85,20.35,12.1,96.0
2021-03-10 05:00:00,143.5,20.35,12.45,96.0
2021-03-10 05:15:00,143.6,20.25,12.1,96.0
2021-03-10 05:30:00,143.1,21.0,12.2,95.65
2021-03-10 05:45:00,141.85,22.0,12.45,96.0
2021-03-10 06:00:00,141.1,22.75,12.1,95.65
2021-03-10 06:15:00,140.85,22.75,13.05,95.65
2021-03-10 06:30:00,140.35,23.6,13.05,95.65
2021-03-10 06:45:00,141.45,21.5,13.65,96.4
2021-03-10 07:00:00,142.45,20.9,13.65,95.65
2021-03-10 07:15:00,144.1,19.5,13.4,95.3
2021-03-10 07:30:00,144.5,19.75,14.25,93.8
2021-03-10 07:45:00,145.45,19.15,14.0,94.75
2021-03-10 08:00:00,144.85,19.15,14.25,94.4
2021-03-10 08:15:00,144.5,19.65,14.5,93.65
2021-03-10 08:30:00,143.85,21.0,14.15,92.95
2021-03-10 08:45:00,142.7,21.9,13.9,93.45
2021-03-10 09:00:00,142.95,21.8,13.2,92.95
2021-03-10 09:15:00,141.95,22.55,13.45,92.95
2021-03-10 09:30:00,141.95,21.95,14.049999999999999,92.95
2021-03-10 09:45:00,141.95,21.95,14.4,93.3
2021-03-10 10:00:00,142.65,22.05,14.65,93.65
2021-03-10 10:15:00,142.3,22.05,14.3,94.0
2021-03-10 10:30:00,142.15,22.4,15.15,93.65
2021-03-10 10:45:00,141.3,22.9,14.8,93.3
2021-03-10 11:00:00,140.7,23.5,14.05,94.05
2021-03-10 11:15:00,140.7,23.85,14.05,94.05
2021-03-10 11:30:00,141.2,23.35,14.8,92.95
2021-03-10 11:45:00,140.85,23.7,14.45,92.6
2021-03-10 12:00:00,141.2,23.0,14.45,92.25
2021-03-10 12:15:00,141.2,23.35,15.15,92.25
2021-03-10 12:30:00,140.95,23.85,15.25,92.25
2021-03-10 12:45:00,140.75,23.1,15.85,92.25
2021-03-10 13:00:00,140.4,22.75,15.5,92.6
2021-03-10 13:15:00,141.15,23.1,15.5,91.85
2021-03-10 13:30:00,140.8,23.6,15.0,91.85
2021-03-10 13:45:00,141.25,24.2,15.35,91.85
2021-03-10 14:00:00,141.25,24.2,15.35,91.85
2021-03-10 14:15:00,140.65,24.45,15.35,91.85
2021-03-10 14:30:00,141.35,24.45,15.0,91.5
2021-03-10 14:45:00,142.1,23.0,14.65,91.5
2021-03-10 15:00:00,143.9,22.25,15.0,91.5
2021-03-10 15:15:00,143.05,22.85,14.9,91.15
2021-03-10 15:30:00,144.0,22.6,14.9,91.15
2021-03-10 15:45:00,143.4,23.1,15.0,91.15
2021-03-10 16:00:00,143.65,22.85,15.35,91.15
2021-03-10 16:15:00,143.65,22.6,15.6,90.8
2021-03-10 16:30:00,143.9,22.35,15.25,90.8
2021-03-10 16:45:00,144.4,21.85,15.25,90.8
2021-03-10 17:00:00,144.3,21.5,15.0,90.8
2021-03-10 17:15:00,143.8,21.75,15.1,91.3
2021-03-10 17:30:00,144.1,22.15,14.75,91.65
2021-03-10 17:45:00,144.45,22.4,13.8,91.65
2021-03-10 18:00:00,144.7,22.4,13.55,91.65
2021-03-10 18:15:00,143.75,22.25,12.8,93.15
2021-03-10 18:30:00,143.75,22.25,12.8,93.15
2021-03-10 18:45:00,143.4,22.25,12.8,93.15
2021-03-10 19:00:00,145.1,22.0,12.45,92.75
2021-03-10 19:15:00,145.1,22.35,12.45,92.75
2021-03-10 19:30:00,143.3,22.35,12.45,93.5
2021-03-10 19:45:00,143.3,22.95,12.2,93.5
2021-03-10 20:00:00,142.9,23.1,12.45,93.85
2021-03-10 20:15:00,143.15,23.1,11.85,94.2
2021-03-10 20:30:00,142.65,22.85,11.85,94.95
2021-03-10 20:45:00,143.1,22.05,11.85,95.65
2021-03-10 21:00:00,142.75,22.4,11.85,95.3
2021-03-10 21:15:00,142.85,22.4,11.75,95.65
2021-03-10 21:30:00,142.25,22.65,11.75,94.95
2021-03-10 21:45:00,142.25,22.65,11.75,95.3
2021-03-10 22:00:00,142.4,22.5,11.75,94.95
2021-03-10 22:15:00,142.9,21.65,11.75,96.0
2021-03-10 22:30:00,143.15,21.4,11.75,95.65
2021-03-10 22:45:00,142.9,21.3,11.75,96.35
2021-03-10 23:00:00,142.8,21.3,11.5,96.35
2021-03-10 23:15:00,141.45,21.9,11.5,97.1
2021-03-10 23:30:00,141.3,21.65,12.25,96.75
2021-03-10 23:45:00,140.6,21.65,12.25,96.75
